+0.00000E+0	+0.00000E+0	-4.46729E-3	-2.23365E-7
+1.47000E-2	+1.40930E-2	+5.29820E-2	+6.81006E-4
+2.95000E-2	+2.82790E-2	+6.99193E-2	+1.39839E-3
+4.42000E-2	+4.23635E-2	+4.19194E-2	+2.18730E-3
+5.90000E-2	+5.65354E-2	+6.09929E-2	+3.05438E-3
+7.37000E-2	+7.06002E-2	+6.89275E-2	+3.95912E-3
+8.85000E-2	+8.47465E-2	+6.02300E-2	+4.88353E-3
+1.03200E-1	+9.87804E-2	+6.80120E-2	+5.83606E-3
+1.18000E-1	+1.12890E-1	+6.36632E-2	+6.76777E-3
+1.32700E-1	+1.26882E-1	+5.34398E-2	+7.70648E-3
+1.47500E-1	+1.40943E-1	+5.95433E-2	+8.64289E-3
+1.62200E-1	+1.54881E-1	+7.44969E-2	+9.60650E-3
+1.76900E-1	+1.68789E-1	+6.49602E-2	+1.05645E-2
+1.91700E-1	+1.82757E-1	+6.48839E-2	+1.15068E-2
+2.06400E-1	+1.96595E-1	+5.77123E-2	+1.24589E-2
+2.21200E-1	+2.10487E-1	+6.96141E-2	+1.33874E-2
+2.35900E-1	+2.24243E-1	+5.06932E-2	+1.43308E-2
+2.50700E-1	+2.38048E-1	+6.61046E-2	+1.52469E-2
+2.65400E-1	+2.51712E-1	+5.24480E-2	+1.61695E-2
+2.80200E-1	+2.65419E-1	+7.41918E-2	+1.71180E-2
+2.94900E-1	+2.78980E-1	+6.30528E-2	+1.80227E-2
+3.09700E-1	+2.92577E-1	+5.81700E-2	+1.89496E-2
+3.24400E-1	+3.06025E-1	+6.29003E-2	+1.98220E-2
+3.39100E-1	+3.19411E-1	+6.37395E-2	+2.07137E-2
+3.53900E-1	+3.32825E-1	+6.47313E-2	+2.16051E-2
+3.68600E-1	+3.46081E-1	+5.08458E-2	+2.24982E-2
+3.83400E-1	+3.59358E-1	+5.25243E-2	+2.33525E-2
+3.98100E-1	+3.72474E-1	+5.14562E-2	+2.42228E-2
+4.12900E-1	+3.85605E-1	+5.95433E-2	+2.50950E-2
+4.27600E-1	+3.98569E-1	+6.15270E-2	+2.59328E-2
+4.42400E-1	+4.11542E-1	+6.51891E-2	+2.67787E-2
+4.57100E-1	+4.24346E-1	+6.33580E-2	+2.76063E-2
+4.71900E-1	+4.37151E-1	+5.79412E-2	+2.84377E-2
+4.86600E-1	+4.49783E-1	+5.85515E-2	+2.92399E-2
+5.01400E-1	+4.62410E-1	+4.47423E-2	+3.00339E-2
+5.16100E-1	+4.74860E-1	+4.81755E-2	+3.08288E-2
+5.30800E-1	+4.87215E-1	+4.24535E-2	+3.15965E-2
+5.45600E-1	+4.99557E-1	+4.65734E-2	+3.23506E-2
+5.60300E-1	+5.11716E-1	+4.21483E-2	+3.30959E-2
+5.75100E-1	+5.23855E-1	+4.17668E-2	+3.38440E-2
+5.89800E-1	+5.35807E-1	+4.38268E-2	+3.45868E-2
+6.04600E-1	+5.47734E-1	+4.06224E-2	+3.53180E-2
+6.19300E-1	+5.59470E-1	+4.74889E-2	+3.60402E-2
+6.34100E-1	+5.71174E-1	+5.02355E-2	+3.67609E-2
+6.48800E-1	+5.82685E-1	+5.96959E-2	+3.74594E-2
+6.63600E-1	+5.94158E-1	+5.77123E-2	+3.81330E-2
+6.78300E-1	+6.05435E-1	+5.37450E-2	+3.87956E-2
+6.93000E-1	+6.16591E-1	+3.66551E-2	+3.94471E-2
+7.07800E-1	+6.27700E-1	+2.42955E-2	+4.01290E-2
+7.22500E-1	+6.38608E-1	+3.13146E-2	+4.08048E-2
+7.37300E-1	+6.49463E-1	+5.75597E-2	+4.14284E-2
+7.52000E-1	+6.60114E-1	+6.38921E-2	+4.20129E-2
+7.66800E-1	+6.70706E-1	+2.66606E-2	+4.26041E-2
+7.81500E-1	+6.81093E-1	+2.01757E-2	+4.32661E-2
+7.96300E-1	+6.91413E-1	+6.15270E-2	+4.38369E-2
+8.11000E-1	+7.01526E-1	+4.57341E-2	+4.43435E-2
+8.25800E-1	+7.11567E-1	+1.55993E-3	+4.49607E-2
+8.40500E-1	+7.21398E-1	+5.99248E-2	+4.55249E-2
+8.55200E-1	+7.31086E-1	+3.67314E-2	+4.59937E-2
+8.70000E-1	+7.40694E-1	+1.80394E-2	+4.65776E-2
+8.84700E-1	+7.50088E-1	+5.38976E-2	+4.70513E-2
+8.99500E-1	+7.59396E-1	+1.86498E-2	+4.75806E-2
+9.14200E-1	+7.68490E-1	+4.26061E-2	+4.80607E-2
+9.29000E-1	+7.77492E-1	+2.77288E-2	+4.85556E-2
+9.43700E-1	+7.86278E-1	+4.12328E-2	+4.90016E-2
+9.58500E-1	+7.94965E-1	+2.74236E-2	+4.94739E-2
+9.73200E-1	+8.03436E-1	+3.07042E-2	+4.98845E-2
+9.88000E-1	+8.11803E-1	+3.72655E-2	+5.03469E-2
+1.00270E+0	+8.19952E-1	+2.73473E-2	+5.07595E-2
+1.01740E+0	+8.27938E-1	+2.42955E-2	+5.11515E-2
+1.03220E+0	+8.35812E-1	+3.03990E-2	+5.15744E-2
+1.04690E+0	+8.43466E-1	+2.82628E-2	+5.19654E-2
+1.06170E+0	+8.51003E-1	+2.70421E-2	+5.23259E-2
+1.07640E+0	+8.58320E-1	+2.26171E-2	+5.26876E-2
+1.09120E+0	+8.65514E-1	+2.18541E-2	+5.30494E-2
+1.10590E+0	+8.72487E-1	+2.47533E-2	+5.34093E-2
+1.12070E+0	+8.79332E-1	+2.15489E-2	+5.37623E-2
+1.13540E+0	+8.85956E-1	+1.80394E-2	+5.40743E-2
+1.15020E+0	+8.92447E-1	+1.68187E-2	+5.43909E-2
+1.16490E+0	+8.98717E-1	+1.95653E-2	+5.46862E-2
+1.17960E+0	+9.04807E-1	+1.53691E-2	+5.49924E-2
+1.19440E+0	+9.10758E-1	+1.33092E-2	+5.52634E-2
+1.20910E+0	+9.16487E-1	+1.45299E-2	+5.55495E-2
+1.22390E+0	+9.22072E-1	+1.05626E-2	+5.58171E-2
+1.23860E+0	+9.27434E-1	+2.04808E-2	+5.60820E-2
+1.25340E+0	+9.32647E-1	+2.09386E-2	+5.63069E-2
+1.26810E+0	+9.37639E-1	+1.30040E-2	+5.65315E-2
+1.28290E+0	+9.42477E-1	+1.31566E-2	+5.67767E-2
+1.29760E+0	+9.47094E-1	+1.49114E-2	+5.69882E-2
+1.31240E+0	+9.51553E-1	+1.13256E-2	+5.72023E-2
+1.32710E+0	+9.55792E-1	+5.83239E-3	+5.73864E-2
+1.34180E+0	+9.59841E-1	+1.48351E-2	+5.75886E-2
+1.35660E+0	+9.63725E-1	+1.30040E-2	+5.77622E-2
+1.37130E+0	+9.67391E-1	-1.72071E-3	+5.79381E-2
+1.38610E+0	+9.70887E-1	+1.17846E-3	+5.80976E-2
+1.40080E+0	+9.74166E-1	+1.88024E-2	+5.82337E-2
+1.41560E+0	+9.77273E-1	+1.39195E-2	+5.83996E-2
+1.43030E+0	+9.80163E-1	+1.29277E-2	+5.85015E-2
+1.44510E+0	+9.82877E-1	+4.91814E-4	+5.86342E-2
+1.45980E+0	+9.85376E-1	-4.69617E-3	+5.87584E-2
+1.47460E+0	+9.87694E-1	+9.49578E-4	+5.88433E-2
+1.48930E+0	+9.89800E-1	-2.25477E-3	+5.89601E-2
+1.50410E+0	+9.91722E-1	+1.73528E-2	+5.90407E-2
+1.51880E+0	+9.93433E-1	-1.31648E-2	+5.91247E-2
+1.53350E+0	+9.94947E-1	-3.09400E-3	+5.91783E-2
+1.54830E+0	+9.96271E-1	+9.49450E-3	+5.92463E-2
+1.56300E+0	+9.97388E-1	+3.23840E-3	+5.92845E-2
+1.57780E+0	+9.98313E-1	+3.16210E-3	+5.92994E-2
+1.59250E+0	+9.99032E-1	-2.86512E-3	+5.93486E-2
+1.60730E+0	+9.99556E-1	+5.22204E-3	+5.93742E-2
+1.62200E+0	+9.99876E-1	+1.66661E-2	+5.94030E-2
+1.63680E+0	+9.99999E-1	+2.01769E-3	+5.94022E-2
+1.65150E+0	+9.99921E-1	+1.86638E-4	+5.93994E-2
+1.66630E+0	+9.99642E-1	+7.05309E-3	+5.93749E-2
+1.68100E+0	+9.99166E-1	-8.35828E-3	+5.93747E-2
+1.69570E+0	+9.98491E-1	-1.14863E-2	+5.93643E-2
+1.71050E+0	+9.97612E-1	-6.83240E-3	+5.93581E-2
+1.72520E+0	+9.96539E-1	+1.42247E-2	+5.93050E-2
+1.74000E+0	+9.95260E-1	-5.61170E-3	+5.92886E-2
+1.75470E+0	+9.93790E-1	-8.81605E-3	+5.92766E-2
+1.76950E+0	+9.92111E-1	-1.00368E-2	+5.92313E-2
+1.78420E+0	+9.90246E-1	+1.10967E-2	+5.91863E-2
+1.79900E+0	+9.88170E-1	-3.93336E-2	+5.91450E-2
+1.81370E+0	+9.85910E-1	-1.46144E-2	+5.91310E-2
+1.82850E+0	+9.83437E-1	+3.61987E-3	+5.90604E-2
+1.84320E+0	+9.80785E-1	+2.55175E-3	+5.89928E-2
+1.85790E+0	+9.77938E-1	-6.37464E-3	+5.89319E-2
+1.87270E+0	+9.74876E-1	-6.37464E-3	+5.88581E-2
+1.88740E+0	+9.71640E-1	+4.07763E-3	+5.87753E-2
+1.90220E+0	+9.68187E-1	-4.23841E-3	+5.86971E-2
+1.91690E+0	+9.64565E-1	-1.19441E-2	+5.86117E-2
+1.93170E+0	+9.60724E-1	-4.08582E-3	+5.84881E-2
+1.94640E+0	+9.56717E-1	-1.09523E-2	+5.83943E-2
+1.96120E+0	+9.52492E-1	+4.00134E-3	+5.82820E-2
+1.97590E+0	+9.48105E-1	+4.91814E-4	+5.81551E-2
+1.99070E+0	+9.43498E-1	-9.73157E-3	+5.80127E-2
+2.00540E+0	+9.38734E-1	-1.20204E-2	+5.78696E-2
+2.02010E+0	+9.33784E-1	-4.77247E-3	+5.77212E-2
+2.03490E+0	+9.28613E-1	-1.43092E-2	+5.75712E-2
+2.04960E+0	+9.23291E-1	-1.14100E-2	+5.73985E-2
+2.06440E+0	+9.17749E-1	-1.07997E-2	+5.72179E-2
+2.07910E+0	+9.12060E-1	-8.96864E-3	+5.70257E-2
+2.09390E+0	+9.06150E-1	-1.28596E-2	+5.68230E-2
+2.10860E+0	+9.00099E-1	-1.20204E-2	+5.66084E-2
+2.12340E+0	+8.93827E-1	-1.14100E-2	+5.63838E-2
+2.13810E+0	+8.87419E-1	-6.45094E-3	+5.61574E-2
+2.15290E+0	+8.80789E-1	+1.55993E-3	+5.59258E-2
+2.16760E+0	+8.74028E-1	-8.51087E-3	+5.56773E-2
+2.18230E+0	+8.67094E-1	-1.74373E-2	+5.54128E-2
+2.19710E+0	+8.59939E-1	-2.23964E-2	+5.51188E-2
+2.21180E+0	+8.52660E-1	-2.38460E-2	+5.48278E-2
+2.22660E+0	+8.45161E-1	-2.75844E-2	+5.45294E-2
+2.24130E+0	+8.37544E-1	-2.15571E-2	+5.42301E-2
+2.25610E+0	+8.29708E-1	-2.65162E-2	+5.39093E-2
+2.27080E+0	+8.21759E-1	-1.99550E-2	+5.35518E-2
+2.28560E+0	+8.13591E-1	-1.47670E-2	+5.32020E-2
+2.30030E+0	+8.05316E-1	-2.56007E-2	+5.28484E-2
+2.31510E+0	+7.96823E-1	-1.84291E-2	+5.24562E-2
+2.32980E+0	+7.88228E-1	-2.08705E-2	+5.20887E-2
+2.34460E+0	+7.79418E-1	-3.42982E-2	+5.16737E-2
+2.35930E+0	+7.70511E-1	-2.57533E-2	+5.12672E-2
+2.37400E+0	+7.61451E-1	-3.41456E-2	+5.08210E-2
+2.38880E+0	+7.52177E-1	-1.65980E-2	+5.03837E-2
+2.40350E+0	+7.42815E-1	-4.16987E-2	+4.99116E-2
+2.41830E+0	+7.33241E-1	-3.04835E-2	+4.94810E-2
+2.43300E+0	+7.23586E-1	-2.75081E-2	+4.89518E-2
+2.44780E+0	+7.13719E-1	-4.47505E-2	+4.84929E-2
+2.46250E+0	+7.03777E-1	-8.12940E-3	+4.79553E-2
+2.47730E+0	+6.93626E-1	-4.95570E-2	+4.74303E-2
+2.49200E+0	+6.83406E-1	-4.44453E-2	+4.69608E-2
+2.50680E+0	+6.72978E-1	-1.43092E-2	+4.63748E-2
+2.52150E+0	+6.62488E-1	-5.22273E-2	+4.57838E-2
+2.53620E+0	+6.51865E-1	-5.74916E-2	+4.52771E-2
+2.55100E+0	+6.41040E-1	-7.13758E-3	+4.46805E-2
+2.56570E+0	+6.30159E-1	-2.46089E-2	+4.40112E-2
+2.58050E+0	+6.19079E-1	-7.06141E-2	+4.34216E-2
+2.59520E+0	+6.07950E-1	-6.76387E-2	+4.28570E-2
+2.61000E+0	+5.96623E-1	-3.42219E-2	+4.22279E-2
+2.62470E+0	+5.85254E-1	-2.48378E-2	+4.15636E-2
+2.63950E+0	+5.73690E-1	-3.73500E-2	+4.08818E-2
+2.65420E+0	+5.62090E-1	-3.86470E-2	+4.02132E-2
+2.66900E+0	+5.50298E-1	-4.59712E-2	+3.95046E-2
+2.68370E+0	+5.38476E-1	-5.15407E-2	+3.88259E-2
+2.69840E+0	+5.26547E-1	-5.83308E-2	+3.81028E-2
+2.71320E+0	+5.14432E-1	-5.79493E-2	+3.73856E-2
+2.72790E+0	+5.02295E-1	-5.81019E-2	+3.66487E-2
+2.74270E+0	+4.89976E-1	-5.35243E-2	+3.59087E-2
+2.75740E+0	+4.77642E-1	-5.46687E-2	+3.51369E-2
+2.77220E+0	+4.65128E-1	-5.95515E-2	+3.43707E-2
+2.78690E+0	+4.52606E-1	-5.45161E-2	+3.35740E-2
+2.80170E+0	+4.39908E-1	-5.10829E-2	+3.27999E-2
+2.81640E+0	+4.27208E-1	-5.06251E-2	+3.19690E-2
+2.83120E+0	+4.14336E-1	-5.13118E-2	+3.11679E-2
+2.84590E+0	+4.01469E-1	-5.20747E-2	+3.03343E-2
+2.86060E+0	+3.88522E-1	-6.67232E-2	+2.95098E-2
+2.87540E+0	+3.75408E-1	-6.26033E-2	+2.86204E-2
+2.89010E+0	+3.62309E-1	-7.59547E-2	+2.77311E-2
+2.90490E+0	+3.49048E-1	-5.63472E-2	+2.68565E-2
+2.91960E+0	+3.35806E-1	-5.73390E-2	+2.59524E-2
+2.93440E+0	+3.22408E-1	-5.33717E-2	+2.50577E-2
+2.94910E+0	+3.09035E-1	-5.91701E-2	+2.41552E-2
+2.96390E+0	+2.95510E-1	-6.80201E-2	+2.32361E-2
+2.97860E+0	+2.82017E-1	-6.42817E-2	+2.22968E-2
+2.99340E+0	+2.68376E-1	-6.20692E-2	+2.13494E-2
+3.00810E+0	+2.54773E-1	-6.66469E-2	+2.03987E-2
+3.02280E+0	+2.41120E-1	-7.84724E-2	+1.94460E-2
+3.03760E+0	+2.27325E-1	-6.72572E-2	+1.84561E-2
+3.05230E+0	+2.13579E-1	-5.93226E-2	+1.74973E-2
+3.06710E+0	+1.99696E-1	-5.94752E-2	+1.65416E-2
+3.08180E+0	+1.85867E-1	-7.06141E-2	+1.55639E-2
+3.09660E+0	+1.71906E-1	-6.85542E-2	+1.45868E-2
+3.11130E+0	+1.58006E-1	-6.17640E-2	+1.35735E-2
+3.12610E+0	+1.43980E-1	-7.48866E-2	+1.26034E-2
+3.14080E+0	+1.30019E-1	-7.16060E-2	+1.15706E-2
+3.15560E+0	+1.15938E-1	-6.48158E-2	+1.05768E-2
+3.17030E+0	+1.01928E-1	-5.84071E-2	+9.60221E-3
+3.18500E+0	+8.78986E-2	-6.90120E-2	+8.60154E-3
+3.19980E+0	+7.37558E-2	-6.72572E-2	+7.59438E-3
+3.21450E+0	+5.96939E-2	-7.20637E-2	+6.57791E-3
+3.22930E+0	+4.55243E-2	-8.26686E-2	+5.56298E-3
+3.24400E+0	+3.14414E-2	-5.89412E-2	+4.53532E-3
+3.25880E+0	+1.72564E-2	-6.35951E-2	+3.53614E-3
+3.27350E+0	+3.16383E-3	-6.39003E-2	+2.54620E-3
+3.28830E+0	-1.10253E-2	-7.58784E-2	+1.51648E-3
+3.30300E+0	-2.51163E-2	-6.11537E-2	+5.12792E-4
+3.31780E+0	-3.92981E-2	-7.96168E-2	-5.22509E-4
+3.33250E+0	-5.33763E-2	-7.77095E-2	-1.55356E-3
+3.34730E+0	-6.75396E-2	-5.53554E-2	-2.56935E-3
+3.36200E+0	-8.15937E-2	-6.33662E-2	-3.55051E-3
+3.37670E+0	-9.56316E-2	-6.66469E-2	-4.53926E-3
+3.39150E+0	-1.09746E-1	-6.87831E-2	-5.53944E-3
+3.40620E+0	-1.23743E-1	-7.43525E-2	-6.53163E-3
+3.42100E+0	-1.37810E-1	-7.15297E-2	-7.54223E-3
+3.43570E+0	-1.51755E-1	-7.02327E-2	-8.52813E-3
+3.45050E+0	-1.65764E-1	-5.33717E-2	-9.49540E-3
+3.46520E+0	-1.79646E-1	-5.83308E-2	-1.04442E-2
+3.48000E+0	-1.93586E-1	-6.95460E-2	-1.14078E-2
+3.49470E+0	-2.07393E-1	-6.06959E-2	-1.23612E-2
+3.50950E+0	-2.21252E-1	-6.54262E-2	-1.33260E-2
+3.52420E+0	-2.34974E-1	-7.32844E-2	-1.42727E-2
+3.53890E+0	-2.48649E-1	-7.22926E-2	-1.52305E-2
+3.55370E+0	-2.62367E-1	-5.77205E-2	-1.61517E-2
+3.56840E+0	-2.75940E-1	-5.12355E-2	-1.70774E-2
+3.58320E+0	-2.89551E-1	-5.89412E-2	-1.79741E-2
+3.59790E+0	-3.03011E-1	-6.66469E-2	-1.88844E-2
+3.61270E+0	-3.16502E-1	-6.00856E-2	-1.98006E-2
+3.62740E+0	-3.29839E-1	-5.80256E-2	-2.06884E-2
+3.64220E+0	-3.43201E-1	-5.74916E-2	-2.15603E-2
+3.65690E+0	-3.56404E-1	-6.54262E-2	-2.24603E-2
+3.67170E+0	-3.69625E-1	-7.15297E-2	-2.33265E-2
+3.68640E+0	-3.82683E-1	-5.30665E-2	-2.41910E-2
+3.70110E+0	-3.95666E-1	-6.42055E-2	-2.50440E-2
+3.71590E+0	-4.08657E-1	-4.59712E-2	-2.58923E-2
+3.73060E+0	-4.21479E-1	-5.06251E-2	-2.67340E-2
+3.74540E+0	-4.34303E-1	-4.65816E-2	-2.75449E-2
+3.76010E+0	-4.46955E-1	-3.93336E-2	-2.83641E-2
+3.77490E+0	-4.59602E-1	-5.48213E-2	-2.91830E-2
+3.78960E+0	-4.72073E-1	-4.78785E-2	-2.99609E-2
+3.80440E+0	-4.84534E-1	-5.37532E-2	-3.07554E-2
+3.81910E+0	-4.96814E-1	-5.29902E-2	-3.15165E-2
+3.83390E+0	-5.09078E-1	-5.02437E-2	-3.23011E-2
+3.84860E+0	-5.21157E-1	-5.38295E-2	-3.30526E-2
+3.86330E+0	-5.33133E-1	-4.88704E-2	-3.37884E-2
+3.87810E+0	-5.45084E-1	-4.57423E-2	-3.45344E-2
+3.89280E+0	-5.56845E-1	-4.24617E-2	-3.52682E-2
+3.90760E+0	-5.68574E-1	-3.33827E-2	-3.59746E-2
+3.92230E+0	-5.80111E-1	-3.70448E-2	-3.66894E-2
+3.93710E+0	-5.91610E-1	-3.62819E-2	-3.73885E-2
+3.95180E+0	-6.02914E-1	-5.03200E-2	-3.80791E-2
+3.96660E+0	-6.14173E-1	-5.96278E-2	-3.87563E-2
+3.98130E+0	-6.25234E-1	-5.92463E-2	-3.93809E-2
+3.99610E+0	-6.36244E-1	-4.33009E-2	-4.00143E-2
+4.01080E+0	-6.47054E-1	-2.68977E-2	-4.06844E-2
+4.02550E+0	-6.57734E-1	-4.20039E-2	-4.13287E-2
+4.04030E+0	-6.68356E-1	-6.50447E-2	-4.19331E-2
+4.05500E+0	-6.78773E-1	-3.68922E-2	-4.24831E-2
+4.06980E+0	-6.89124E-1	-8.66346E-3	-4.31262E-2
+4.08450E+0	-6.99268E-1	-5.99330E-2	-4.37348E-2
+4.09930E+0	-7.09340E-1	-5.57368E-2	-4.42289E-2
+4.11400E+0	-7.19204E-1	-3.55177E-3	-4.48267E-2
+4.12880E+0	-7.28990E-1	-5.04725E-2	-4.54076E-2
+4.14350E+0	-7.38564E-1	-4.09358E-2	-4.58768E-2
+4.15830E+0	-7.48056E-1	-2.36934E-2	-4.64795E-2
+4.17300E+0	-7.57334E-1	-5.13881E-2	-4.69413E-2
+4.18780E+0	-7.66524E-1	-1.91157E-2	-4.74721E-2
+4.20250E+0	-7.75498E-1	-4.29957E-2	-4.79507E-2
+4.21720E+0	-7.84319E-1	-3.85707E-2	-4.84495E-2
+4.23200E+0	-7.93042E-1	-3.58241E-2	-4.88948E-2
+4.24670E+0	-8.01548E-1	-2.57533E-2	-4.93898E-2
+4.26150E+0	-8.09951E-1	-1.39277E-2	-4.98359E-2
+4.27620E+0	-8.18136E-1	-3.18568E-2	-5.02712E-2
+4.29100E+0	-8.26213E-1	-2.84999E-2	-5.07177E-2
+4.30570E+0	-8.34070E-1	-1.92683E-2	-5.11315E-2
+4.32050E+0	-8.41814E-1	-2.81947E-2	-5.15329E-2
+4.33520E+0	-8.49337E-1	-3.20094E-2	-5.19347E-2
+4.35000E+0	-8.56741E-1	-3.09413E-2	-5.23327E-2
+4.36470E+0	-8.63925E-1	-2.45326E-2	-5.26971E-2
+4.37940E+0	-8.70936E-1	-1.35463E-2	-5.30513E-2
+4.39420E+0	-8.77821E-1	-1.61403E-2	-5.33887E-2
+4.40890E+0	-8.84484E-1	-2.96443E-2	-5.37385E-2
+4.42370E+0	-8.91015E-1	-2.94154E-2	-5.40668E-2
+4.43840E+0	-8.97325E-1	-2.62111E-2	-5.44018E-2
+4.45320E+0	-9.03497E-1	-2.56007E-2	-5.47121E-2
+4.46790E+0	-9.09447E-1	-2.56007E-2	-5.50193E-2
+4.48270E+0	-9.15256E-1	-2.45326E-2	-5.53007E-2
+4.49740E+0	-9.20842E-1	-2.56007E-2	-5.55760E-2
+4.51220E+0	-9.26283E-1	-1.69032E-2	-5.58294E-2
+4.52690E+0	-9.31501E-1	-1.15626E-2	-5.61111E-2
+4.54160E+0	-9.36535E-1	-9.57899E-3	-5.63730E-2
+4.55640E+0	-9.41415E-1	-2.67451E-2	-5.66043E-2
+4.57110E+0	-9.46074E-1	-1.76661E-2	-5.68319E-2
+4.58590E+0	-9.50575E-1	-2.04127E-2	-5.70332E-2
+4.60060E+0	-9.54857E-1	-2.10218E-3	-5.72537E-2
+4.61540E+0	-9.58976E-1	-1.09523E-2	-5.74564E-2
+4.63010E+0	-9.62876E-1	-2.03364E-2	-5.76365E-2
+4.64490E+0	-9.66609E-1	-1.27833E-2	-5.78264E-2
+4.65960E+0	-9.70124E-1	-2.17847E-3	-5.79882E-2
+4.67440E+0	-9.73469E-1	-1.75136E-2	-5.81459E-2
+4.68910E+0	-9.76597E-1	-2.14045E-2	-5.82875E-2
+4.70380E+0	-9.79531E-1	-2.02601E-2	-5.84413E-2
+4.71860E+0	-9.82289E-1	-3.01771E-3	-5.85673E-2
+4.73330E+0	-9.84832E-1	-5.91688E-3	-5.87026E-2
+4.74810E+0	-9.87195E-1	-2.25490E-2	-5.88158E-2
+4.76280E+0	-9.89345E-1	-1.29359E-2	-5.89161E-2
+4.77760E+0	-9.91311E-1	+1.02574E-2	-5.90398E-2
+4.79230E+0	-9.93066E-1	-2.65925E-2	-5.91153E-2
+4.80710E+0	-9.94634E-1	-1.16389E-2	-5.92071E-2
+4.82180E+0	-9.95993E-1	-4.92506E-3	-5.92487E-2
+4.83660E+0	-9.97162E-1	+3.23840E-3	-5.93249E-2
+4.85130E+0	-9.98124E-1	-1.87330E-3	-5.93789E-2
+4.86600E+0	-9.98888E-1	-5.00007E-4	-5.93976E-2
+4.88080E+0	-9.99456E-1	+7.35827E-3	-5.94503E-2
+4.89550E+0	-9.99822E-1	-5.00007E-4	-5.94586E-2
+4.91030E+0	-9.99989E-1	-1.94832E-4	-5.94872E-2
+4.92500E+0	-9.99956E-1	+3.40503E-5	-5.94896E-2
+4.93980E+0	-9.99722E-1	-2.40736E-3	-5.94940E-2
+4.95450E+0	-9.99290E-1	-1.07997E-2	-5.94879E-2
+4.96930E+0	-9.98655E-1	-1.01130E-2	-5.94715E-2
+4.98400E+0	-9.97825E-1	+1.03337E-2	-5.94682E-2
+4.99880E+0	-9.96790E-1	+4.61169E-3	-5.94838E-2
+5.01350E+0	-9.95562E-1	-1.99550E-2	-5.94586E-2
+5.02820E+0	-9.94137E-1	-9.50269E-3	-5.94166E-2
+5.04300E+0	-9.92503E-1	-2.33106E-3	-5.94107E-2
+5.05770E+0	-9.90682E-1	+9.57079E-3	-5.93952E-2
+5.07250E+0	-9.88650E-1	-2.97206E-2	-5.93292E-2
+5.08720E+0	-9.86434E-1	+2.45244E-2	-5.92672E-2
+5.10200E+0	-9.84006E-1	+1.82683E-2	-5.92612E-2
+5.11670E+0	-9.81398E-1	-4.54359E-3	-5.92214E-2
+5.13150E+0	-9.78575E-1	-2.48365E-3	-5.91572E-2
+5.14620E+0	-9.75576E-1	+4.00134E-3	-5.90944E-2
+5.16100E+0	-9.72361E-1	-2.48365E-3	-5.90276E-2
+5.17570E+0	-9.68974E-1	+4.45910E-3	-5.89647E-2
+5.19050E+0	-9.65369E-1	+1.13256E-2	-5.88891E-2
+5.20520E+0	-9.61597E-1	+6.44402E-4	-5.87859E-2
+5.21990E+0	-9.57633E-1	+8.42638E-3	-5.87091E-2
+5.23470E+0	-9.53451E-1	+7.51086E-3	-5.85920E-2
+5.24940E+0	-9.49106E-1	-3.09400E-3	-5.84799E-2
+5.26420E+0	-9.44542E-1	+1.24700E-2	-5.83692E-2
+5.27890E+0	-9.39820E-1	+1.97942E-2	-5.82326E-2
+5.29370E+0	-9.34878E-1	+8.35009E-3	-5.80944E-2
+5.30840E+0	-9.29782E-1	+7.43456E-3	-5.79585E-2
+5.32320E+0	-9.24465E-1	+1.40734E-3	-5.77915E-2
+5.33790E+0	-9.19000E-1	+7.05309E-3	-5.76297E-2
+5.35270E+0	-9.13314E-1	+8.80785E-3	-5.74529E-2
+5.36740E+0	-9.07484E-1	+1.13256E-2	-5.72667E-2
+5.38210E+0	-9.01473E-1	+6.29015E-3	-5.70649E-2
+5.39690E+0	-8.95241E-1	+1.31566E-2	-5.68638E-2
+5.41160E+0	-8.88873E-1	+2.14726E-2	-5.66457E-2
+5.42640E+0	-8.82283E-1	+2.03282E-2	-5.64076E-2
+5.44110E+0	-8.75561E-1	+1.71239E-2	-5.61686E-2
+5.45590E+0	-8.68618E-1	+1.40721E-2	-5.59320E-2
+5.47060E+0	-8.61549E-1	+2.05571E-2	-5.56692E-2
+5.48540E+0	-8.54259E-1	+2.58214E-2	-5.53774E-2
+5.50010E+0	-8.46848E-1	+1.97942E-2	-5.50998E-2
+5.51490E+0	-8.39217E-1	+2.29222E-2	-5.48004E-2
+5.52960E+0	-8.31470E-1	+2.13201E-2	-5.44897E-2
+5.54430E+0	-8.23557E-1	+1.62084E-2	-5.41468E-2
+5.55910E+0	-8.15426E-1	+1.36144E-2	-5.38073E-2
+5.57380E+0	-8.07187E-1	+2.36852E-2	-5.34627E-2
+5.58860E+0	-7.98730E-1	+2.59740E-2	-5.30740E-2
+5.60330E+0	-7.90171E-1	+2.29222E-2	-5.27106E-2
+5.61810E+0	-7.81396E-1	+3.74944E-2	-5.23146E-2
+5.63280E+0	-7.72524E-1	+2.50585E-2	-5.19348E-2
+5.64760E+0	-7.63436E-1	+3.58159E-2	-5.15223E-2
+5.66230E+0	-7.54258E-1	+1.75817E-2	-5.10745E-2
+5.67710E+0	-7.44866E-1	+4.20720E-2	-5.06382E-2
+5.69180E+0	-7.35389E-1	+2.41429E-2	-5.02033E-2
+5.70650E+0	-7.25766E-1	+4.24535E-2	-4.97115E-2
+5.72130E+0	-7.15932E-1	+2.53636E-2	-4.92694E-2
+5.73600E+0	-7.06021E-1	+2.20067E-2	-4.87154E-2
+5.75080E+0	-6.95902E-1	+5.93144E-2	-4.82382E-2
+5.76550E+0	-6.85712E-1	+2.52111E-2	-4.77383E-2
+5.78030E+0	-6.75315E-1	+2.44481E-2	-4.71537E-2
+5.79500E+0	-6.64854E-1	+6.42736E-2	-4.66534E-2
+5.80980E+0	-6.54189E-1	+1.90312E-2	-4.61223E-2
+5.82450E+0	-6.43465E-1	+9.95226E-3	-4.54824E-2
+5.83930E+0	-6.32539E-1	+6.35106E-2	-4.48732E-2
+5.85400E+0	-6.21560E-1	+6.97667E-2	-4.43482E-2
+5.86870E+0	-6.10459E-1	+3.12383E-2	-4.37432E-2
+5.88350E+0	-5.99159E-1	+1.71239E-2	-4.30736E-2
+5.89820E+0	-5.87816E-1	+4.48949E-2	-4.24125E-2
+5.91300E+0	-5.76278E-1	+4.57341E-2	-4.17813E-2
+5.92770E+0	-5.64704E-1	+5.42790E-2	-4.11241E-2
+5.94250E+0	-5.52937E-1	+6.44261E-2	-4.04542E-2
+5.95720E+0	-5.41139E-1	+5.89330E-2	-3.97760E-2
+5.97200E+0	-5.29153E-1	+5.59575E-2	-3.90766E-2
+5.98670E+0	-5.17142E-1	+5.42028E-2	-3.83636E-2
+6.00150E+0	-5.04946E-1	+6.22899E-2	-3.76354E-2
+6.01620E+0	-4.92731E-1	+5.50420E-2	-3.68887E-2
+6.03100E+0	-4.80335E-1	+6.46550E-2	-3.61324E-2
+6.04570E+0	-4.67926E-1	+5.66442E-2	-3.53903E-2
+6.06040E+0	-4.55425E-1	+6.56468E-2	-3.46019E-2
+6.07520E+0	-4.42747E-1	+5.90856E-2	-3.38020E-2
+6.08990E+0	-4.30067E-1	+6.42736E-2	-3.29952E-2
+6.10470E+0	-4.17214E-1	+5.88567E-2	-3.21843E-2
+6.11940E+0	-4.04365E-1	+5.30583E-2	-3.13475E-2
+6.13420E+0	-3.91347E-1	+5.51183E-2	-3.05005E-2
+6.14890E+0	-3.78339E-1	+5.10747E-2	-2.96741E-2
+6.16370E+0	-3.65167E-1	+6.97667E-2	-2.88005E-2
+6.17840E+0	-3.52011E-1	+5.86278E-2	-2.79534E-2
+6.19320E+0	-3.38695E-1	+6.07640E-2	-2.70289E-2
+6.20790E+0	-3.25401E-1	+5.42028E-2	-2.61628E-2
+6.22260E+0	-3.12043E-1	+5.37450E-2	-2.52598E-2
+6.23740E+0	-2.98531E-1	+5.92382E-2	-2.43424E-2
+6.25210E+0	-2.85051E-1	+6.67913E-2	-2.34322E-2
+6.26690E+0	-2.71422E-1	+7.09111E-2	-2.24783E-2
+6.28160E+0	-2.57831E-1	+6.70964E-2	-2.15327E-2
+6.29640E+0	-2.44096E-1	+5.95433E-2	-2.05708E-2
+6.31110E+0	-2.30405E-1	+6.94615E-2	-1.96022E-2
+6.32590E+0	-2.16575E-1	+6.96141E-2	-1.86163E-2
+6.34060E+0	-2.02795E-1	+5.85515E-2	-1.76490E-2
+6.35540E+0	-1.88880E-1	+6.05351E-2	-1.66822E-2
+6.37010E+0	-1.75022E-1	+6.27477E-2	-1.57058E-2
+6.38480E+0	-1.61129E-1	+7.79302E-2	-1.47231E-2
+6.39960E+0	-1.47110E-1	+6.56468E-2	-1.36998E-2
+6.41430E+0	-1.33156E-1	+7.23607E-2	-1.27213E-2
+6.42910E+0	-1.19080E-1	+7.05297E-2	-1.16941E-2
+6.44380E+0	-1.05075E-1	+6.05351E-2	-1.07037E-2
+6.45860E+0	-9.09542E-2	+6.47313E-2	-9.70551E-3
+6.47330E+0	-7.69106E-2	+7.35814E-2	-8.70690E-3
+6.48810E+0	-6.27561E-2	+7.41918E-2	-7.68318E-3
+6.50280E+0	-4.86846E-2	+7.07585E-2	-6.65299E-3
+6.51760E+0	-3.45077E-2	+7.52599E-2	-5.62574E-3
+6.53230E+0	-2.04197E-2	+6.25188E-2	-4.60556E-3
+6.54700E+0	-6.32763E-3	+6.29766E-2	-3.59876E-3
+6.56180E+0	+7.86157E-3	+7.71672E-2	-2.59567E-3
+6.57650E+0	+2.19533E-2	+7.12926E-2	-1.55867E-3
+6.59130E+0	+3.61366E-2	+7.25896E-2	-5.50720E-4
+6.60600E+0	+5.02167E-2	+8.01427E-2	+4.96056E-4
+6.62080E+0	+6.43826E-2	+7.01482E-2	+1.50641E-3
+6.63550E+0	+7.84400E-2	+5.54235E-2	+2.52410E-3
+6.65030E+0	+9.25772E-2	+7.44969E-2	+3.52223E-3
+6.66500E+0	+1.06600E-1	+7.35051E-2	+4.52915E-3
+6.67980E+0	+1.20698E-1	+6.52654E-2	+5.54212E-3
+6.69450E+0	+1.34676E-1	+6.93852E-2	+6.54244E-3
+6.70920E+0	+1.48627E-1	+7.28948E-2	+7.55250E-3
+6.72400E+0	+1.62643E-1	+6.61046E-2	+8.53648E-3
+6.73870E+0	+1.76532E-1	+5.74834E-2	+9.51806E-3
+6.75350E+0	+1.90481E-1	+6.83934E-2	+1.04763E-2
+6.76820E+0	+2.04297E-1	+7.09874E-2	+1.14627E-2
+6.78300E+0	+2.18166E-1	+6.54943E-2	+1.24292E-2
+6.79770E+0	+2.31898E-1	+6.48839E-2	+1.33803E-2
+6.81250E+0	+2.45676E-1	+7.27422E-2	+1.43502E-2
+6.82720E+0	+2.59313E-1	+6.30528E-2	+1.52896E-2
+6.84200E+0	+2.72990E-1	+5.57286E-2	+1.62415E-2
+6.85670E+0	+2.86521E-1	+5.45079E-2	+1.71548E-2
+6.87140E+0	+2.99995E-1	+6.12218E-2	+1.80715E-2
+6.88620E+0	+3.13500E-1	+6.78594E-2	+1.89840E-2
+6.90090E+0	+3.26851E-1	+7.04534E-2	+1.99056E-2
+6.91570E+0	+3.40228E-1	+5.77123E-2	+2.08200E-2
+6.93040E+0	+3.53446E-1	+5.72545E-2	+2.17111E-2
+6.94520E+0	+3.66684E-1	+6.19084E-2	+2.25974E-2
+6.95990E+0	+3.79759E-1	+6.09929E-2	+2.34791E-2
+6.97470E+0	+3.92846E-1	+6.54943E-2	+2.43714E-2
+6.98940E+0	+4.05767E-1	+6.07640E-2	+2.52122E-2
+7.00420E+0	+4.18695E-1	+5.39739E-2	+2.60736E-2
+7.01890E+0	+4.31451E-1	+5.16088E-2	+2.68888E-2
+7.03370E+0	+4.44208E-1	+4.04698E-2	+2.77374E-2
+7.04840E+0	+4.56790E-1	+5.51183E-2	+2.85274E-2
+7.06310E+0	+4.69282E-1	+3.68077E-2	+2.93477E-2
+7.07790E+0	+4.81764E-1	+5.19902E-2	+3.01445E-2
+7.09260E+0	+4.94066E-1	+4.04698E-2	+3.09364E-2
+7.10740E+0	+5.06352E-1	+4.30638E-2	+3.17056E-2
+7.12210E+0	+5.18454E-1	+4.09276E-2	+3.24721E-2
+7.13690E+0	+5.30535E-1	+4.17668E-2	+3.32392E-2
+7.15160E+0	+5.42429E-1	+3.71129E-2	+3.39877E-2
+7.16640E+0	+5.54294E-1	+3.84099E-2	+3.47352E-2
+7.18110E+0	+5.65969E-1	+3.30693E-2	+3.54736E-2
+7.19590E+0	+5.77610E-1	+4.83281E-2	+3.61976E-2
+7.21060E+0	+5.89057E-1	+4.88622E-2	+3.69082E-2
+7.22530E+0	+6.00386E-1	+6.06114E-2	+3.75788E-2
+7.24010E+0	+6.11673E-1	+6.12218E-2	+3.82462E-2
+7.25480E+0	+6.22761E-1	+3.52819E-2	+3.89000E-2
+7.26960E+0	+6.33800E-1	+2.96361E-2	+3.95846E-2
+7.28430E+0	+6.44638E-1	+3.64263E-2	+4.02443E-2
+7.29910E+0	+6.55420E-1	+6.01537E-2	+4.08766E-2
+7.31380E+0	+6.65999E-1	+6.06114E-2	+4.14603E-2
+7.32860E+0	+6.76516E-1	+1.84209E-2	+4.20757E-2
+7.34330E+0	+6.86828E-1	+2.53636E-2	+4.27483E-2
+7.35810E+0	+6.97071E-1	+6.56468E-2	+4.33009E-2
+7.37280E+0	+7.07107E-1	+3.48241E-2	+4.38259E-2
+7.38750E+0	+7.17002E-1	+1.95653E-2	+4.44545E-2
+7.40230E+0	+7.26820E-1	+6.39684E-2	+4.49805E-2
+7.41700E+0	+7.36428E-1	+1.01049E-2	+4.55079E-2
+7.43180E+0	+7.45952E-1	+4.07750E-2	+4.60979E-2
+7.44650E+0	+7.55264E-1	+4.12328E-2	+4.65512E-2
+7.46130E+0	+7.64488E-1	+2.71184E-2	+4.71098E-2
+7.47600E+0	+7.73497E-1	+3.65026E-2	+4.75600E-2
+7.49080E+0	+7.82412E-1	+2.68132E-2	+4.81046E-2
+7.50550E+0	+7.91111E-1	+3.20012E-2	+4.85199E-2
+7.52030E+0	+7.99710E-1	+3.93254E-2	+4.89940E-2
+7.53500E+0	+8.08092E-1	+2.55162E-2	+4.94520E-2
+7.54970E+0	+8.16313E-1	+3.45189E-2	+4.98610E-2
+7.56450E+0	+8.24427E-1	+3.19249E-2	+5.03020E-2
+7.57920E+0	+8.32321E-1	+1.94890E-2	+5.07207E-2
+7.59400E+0	+8.40102E-1	+3.02465E-2	+5.11024E-2
+7.60870E+0	+8.47663E-1	+3.61211E-2	+5.14893E-2
+7.62350E+0	+8.55105E-1	+3.20775E-2	+5.18916E-2
+7.63820E+0	+8.62327E-1	+2.13201E-2	+5.22459E-2
+7.65300E+0	+8.69425E-1	+2.19304E-2	+5.26060E-2
+7.66770E+0	+8.76301E-1	+1.73528E-2	+5.29543E-2
+7.68250E+0	+8.83049E-1	+2.18541E-2	+5.32897E-2
+7.69720E+0	+8.89574E-1	+2.24645E-2	+5.35975E-2
+7.71190E+0	+8.95924E-1	+2.30748E-2	+5.39233E-2
+7.72670E+0	+9.02136E-1	+2.36089E-2	+5.42185E-2
+7.74140E+0	+9.08127E-1	+1.71239E-2	+5.45148E-2
+7.75620E+0	+9.13976E-1	+1.88024E-2	+5.47883E-2
+7.77090E+0	+9.19604E-1	+1.33092E-2	+5.50742E-2
+7.78570E+0	+9.25086E-1	+5.83239E-3	+5.53446E-2
+7.80040E+0	+9.30346E-1	+1.83446E-2	+5.56073E-2
+7.81520E+0	+9.35455E-1	+2.11675E-2	+5.58373E-2
+7.82990E+0	+9.40343E-1	+1.11730E-2	+5.60681E-2
+7.84470E+0	+9.45076E-1	+1.70476E-2	+5.62930E-2
+7.85940E+0	+9.49588E-1	+4.53539E-3	+5.64903E-2
+7.87420E+0	+9.53941E-1	+5.22204E-3	+5.67167E-2
+7.88890E+0	+9.58074E-1	+1.02574E-2	+5.69037E-2
+7.90360E+0	+9.62017E-1	+1.67424E-2	+5.70715E-2
+7.91840E+0	+9.65793E-1	+1.26988E-2	+5.72618E-2
+7.93310E+0	+9.69352E-1	-4.23713E-4	+5.74205E-2
+7.94790E+0	+9.72740E-1	+1.65135E-2	+5.75867E-2
+7.96260E+0	+9.75912E-1	+2.01757E-2	+5.77313E-2
+7.97740E+0	+9.78909E-1	+1.84209E-2	+5.78737E-2
+7.99210E+0	+9.81691E-1	+1.88024E-2	+5.79762E-2
+8.00690E+0	+9.84295E-1	+7.96862E-3	+5.81018E-2
+8.02160E+0	+9.86685E-1	+3.69616E-3	+5.82165E-2
+8.03640E+0	+9.88893E-1	+1.04863E-2	+5.83192E-2
+8.05110E+0	+9.90890E-1	+2.11675E-2	+5.83960E-2
+8.06580E+0	+9.92689E-1	-1.01893E-2	+5.84957E-2
+8.08060E+0	+9.94302E-1	-1.33924E-3	+5.85475E-2
+8.09530E+0	+9.95706E-1	-4.69617E-3	+5.86122E-2
+8.11010E+0	+9.96919E-1	+1.55980E-2	+5.86602E-2
+8.12480E+0	+9.97925E-1	-3.85694E-3	+5.86953E-2
+8.13960E+0	+9.98738E-1	+7.05309E-3	+5.87481E-2
+8.15430E+0	+9.99347E-1	+6.82421E-3	+5.87652E-2
+8.16910E+0	+9.99759E-1	-3.55177E-3	+5.87628E-2
+8.18380E+0	+9.99969E-1	-4.69617E-3	+5.88013E-2
+8.19860E+0	+9.99980E-1	-1.94959E-3	+5.88010E-2
+8.21330E+0	+9.99791E-1	-9.19752E-3	+5.87713E-2
+8.22800E+0	+9.99404E-1	-6.06947E-3	+5.87805E-2
+8.24280E+0	+9.98814E-1	-4.22436E-5	+5.87720E-2
+8.25750E+0	+9.98029E-1	+1.58269E-2	+5.87477E-2
+8.27230E+0	+9.97038E-1	-2.25477E-3	+5.87208E-2
+8.28700E+0	+9.95855E-1	-2.23964E-2	+5.87038E-2
+8.30180E+0	+9.94464E-1	-1.26295E-3	+5.86855E-2
+8.31650E+0	+9.92885E-1	-6.45094E-3	+5.86380E-2
+8.33130E+0	+9.91095E-1	+5.60351E-3	+5.86008E-2
+8.34600E+0	+9.89120E-1	-1.70558E-2	+5.85871E-2
+8.36080E+0	+9.86933E-1	+3.32982E-2	+5.85283E-2
+8.37550E+0	+9.84564E-1	+2.04808E-2	+5.84560E-2
+8.39020E+0	+9.82000E-1	-1.61403E-2	+5.84246E-2
+8.40500E+0	+9.79221E-1	+4.91686E-3	+5.83560E-2
+8.41970E+0	+9.76266E-1	-1.18665E-3	+5.82922E-2
+8.43450E+0	+9.73095E-1	+4.00134E-3	+5.82093E-2
+8.44920E+0	+9.69751E-1	-2.78883E-3	+5.81310E-2
+8.46400E+0	+9.66190E-1	-8.05311E-3	+5.80468E-2
+8.47870E+0	+9.62460E-1	-6.06947E-3	+5.79289E-2
+8.49350E+0	+9.58512E-1	-1.49183E-3	+5.78389E-2
+8.50820E+0	+9.54400E-1	-3.78065E-3	+5.77188E-2
+8.52300E+0	+9.50068E-1	-4.00953E-3	+5.75984E-2
+8.53770E+0	+9.45576E-1	-1.15626E-2	+5.74707E-2
+8.55240E+0	+9.40896E-1	-1.72084E-2	+5.73266E-2
+8.56720E+0	+9.35996E-1	-3.93323E-3	+5.71731E-2
+8.58190E+0	+9.30942E-1	-6.37464E-3	+5.70286E-2
+8.59670E+0	+9.25667E-1	-1.02656E-2	+5.68525E-2
+8.61140E+0	+9.20243E-1	-1.47670E-2	+5.66890E-2
+8.62620E+0	+9.14598E-1	-1.58351E-2	+5.65027E-2
+8.64090E+0	+9.08808E-1	-9.57899E-3	+5.63058E-2
+8.65570E+0	+9.02797E-1	-1.11812E-2	+5.61051E-2
+8.67040E+0	+8.96646E-1	-1.12575E-2	+5.58790E-2
+8.68520E+0	+8.90274E-1	-1.06471E-2	+5.56532E-2
+8.69990E+0	+8.83767E-1	-6.37464E-3	+5.54228E-2
+8.71460E+0	+8.77085E-1	-1.47670E-2	+5.51735E-2
+8.72940E+0	+8.70181E-1	-1.69032E-2	+5.49061E-2
+8.74410E+0	+8.63151E-1	-1.98787E-2	+5.46265E-2
+8.75890E+0	+8.55900E-1	-1.44618E-2	+5.43499E-2
+8.77360E+0	+8.48526E-1	-2.96443E-2	+5.40488E-2
+8.78840E+0	+8.40933E-1	-2.97206E-2	+5.37339E-2
+8.80310E+0	+8.33223E-1	-2.51430E-2	+5.34219E-2
+8.81790E+0	+8.25294E-1	-1.81239E-2	+5.30960E-2
+8.83260E+0	+8.17253E-1	-2.59059E-2	+5.27416E-2
+8.84740E+0	+8.08994E-1	-1.59877E-2	+5.23748E-2
+8.86210E+0	+8.00630E-1	-1.75899E-2	+5.20190E-2
+8.87690E+0	+7.92048E-1	-3.16279E-2	+5.16204E-2
+8.89160E+0	+7.83366E-1	-2.08705E-2	+5.12299E-2
+8.90630E+0	+7.74529E-1	-3.87233E-2	+5.08178E-2
+8.92110E+0	+7.65476E-1	-2.48378E-2	+5.03800E-2
+8.93580E+0	+7.56331E-1	-3.20857E-2	+4.99655E-2
+8.95060E+0	+7.46973E-1	-1.75136E-2	+4.94881E-2
+8.96530E+0	+7.37529E-1	-4.08595E-2	+4.90283E-2
+8.98010E+0	+7.27873E-1	-1.82002E-2	+4.85566E-2
+8.99480E+0	+7.18137E-1	-4.41401E-2	+4.80403E-2
+9.00960E+0	+7.08191E-1	-3.59767E-2	+4.75911E-2
+9.02430E+0	+6.98170E-1	-2.34645E-2	+4.70313E-2
+9.03910E+0	+6.87942E-1	-5.57368E-2	+4.65170E-2
+9.05380E+0	+6.77645E-1	-3.05598E-2	+4.60121E-2
+9.06850E+0	+6.67214E-1	-1.62166E-2	+4.53954E-2
+9.08330E+0	+6.56578E-1	-7.18348E-2	+4.48310E-2
+9.09800E+0	+6.45883E-1	-4.66578E-2	+4.43225E-2
+9.11280E+0	+6.34986E-1	-1.27833E-2	+4.37049E-2
+9.12750E+0	+6.24036E-1	-3.29249E-2	+4.30407E-2
+9.14230E+0	+6.12886E-1	-6.29847E-2	+4.24506E-2
+9.15700E+0	+6.01689E-1	-5.64998E-2	+4.18600E-2
+9.17180E+0	+5.90295E-1	-3.41456E-2	+4.12221E-2
+9.18650E+0	+5.78861E-1	-2.80421E-2	+4.05421E-2
+9.20130E+0	+5.67233E-1	-2.95680E-2	+3.98578E-2
+9.21600E+0	+5.55570E-1	-3.39168E-2	+3.91648E-2
+9.23070E+0	+5.43797E-1	-4.36061E-2	+3.84688E-2
+9.24550E+0	+5.31835E-1	-4.65053E-2	+3.77516E-2
+9.26020E+0	+5.19847E-1	-4.78785E-2	+3.70388E-2
+9.27500E+0	+5.07674E-1	-5.01674E-2	+3.63037E-2
+9.28970E+0	+4.95482E-1	-4.42164E-2	+3.55646E-2
+9.30450E+0	+4.83107E-1	-5.28377E-2	+3.48114E-2
+9.31920E+0	+4.70720E-1	-4.95570E-2	+3.40430E-2
+9.33400E+0	+4.58154E-1	-4.37587E-2	+3.32511E-2
+9.34870E+0	+4.45582E-1	-5.64998E-2	+3.24699E-2
+9.36350E+0	+4.32835E-1	-4.02492E-2	+3.16656E-2
+9.37820E+0	+4.20087E-1	-5.13118E-2	+3.08495E-2
+9.39290E+0	+4.07256E-1	-5.02437E-2	+3.00407E-2
+9.40770E+0	+3.94256E-1	-5.51265E-2	+2.91990E-2
+9.42240E+0	+3.81266E-1	-6.39003E-2	+2.83481E-2
+9.43720E+0	+3.68110E-1	-5.65761E-2	+2.74648E-2
+9.45190E+0	+3.54970E-1	-6.29085E-2	+2.65779E-2
+9.46670E+0	+3.41670E-1	-5.58894E-2	+2.57003E-2
+9.48140E+0	+3.28391E-1	-5.95515E-2	+2.47805E-2
+9.49620E+0	+3.14956E-1	-7.35133E-2	+2.38813E-2
+9.51090E+0	+3.01549E-1	-6.64943E-2	+2.29425E-2
+9.52570E+0	+2.87990E-1	-7.17586E-2	+2.20053E-2
+9.54040E+0	+2.74466E-1	-5.68049E-2	+2.10728E-2
+9.55510E+0	+2.60887E-1	-5.48213E-2	+2.01250E-2
+9.56990E+0	+2.47163E-1	-6.70283E-2	+1.91870E-2
+9.58460E+0	+2.33483E-1	-6.87831E-2	+1.82075E-2
+9.59940E+0	+2.19662E-1	-6.37477E-2	+1.72449E-2
+9.61410E+0	+2.05892E-1	-7.19874E-2	+1.62752E-2
+9.62890E+0	+1.91986E-1	-7.86250E-2	+1.52995E-2
+9.64360E+0	+1.78136E-1	-6.90883E-2	+1.42910E-2
+9.65840E+0	+1.64157E-1	-5.32954E-2	+1.33062E-2
+9.67310E+0	+1.50238E-1	-6.52736E-2	+1.23388E-2
+9.68790E+0	+1.36196E-1	-6.40529E-2	+1.13303E-2
+9.70260E+0	+1.22220E-1	-6.96986E-2	+1.03312E-2
+9.71740E+0	+1.08126E-1	-7.10719E-2	+9.32756E-3
+9.73210E+0	+9.41045E-2	-7.90065E-2	+8.32870E-3
+9.74680E+0	+8.00647E-2	-6.69520E-2	+7.30384E-3
+9.76160E+0	+6.59134E-2	-5.69575E-2	+6.30171E-3
+9.77630E+0	+5.18445E-2	-6.93934E-2	+5.30976E-3
+9.79110E+0	+3.76695E-2	-7.18348E-2	+4.28572E-3
+9.80580E+0	+2.35828E-2	-6.25270E-2	+3.27405E-3
+9.82060E+0	+9.39549E-3	-7.41237E-2	+2.25339E-3
+9.83530E+0	-4.69780E-3	-6.33662E-2	+1.23884E-3
+9.85010E+0	-1.88860E-2	-6.80964E-2	+2.16943E-4
+9.86480E+0	-3.29746E-2	-6.03908E-2	-7.97720E-4
+9.87960E+0	-4.71524E-2	-7.00801E-2	-1.80424E-3
+9.89430E+0	-6.12250E-2	-7.16823E-2	-2.83744E-3
+9.90900E+0	-7.52855E-2	-7.06904E-2	-3.83313E-3
+9.92380E+0	-8.94265E-2	-7.33607E-2	-4.86408E-3
+9.93850E+0	-1.03454E-1	-6.74098E-2	-5.85576E-3
+9.95330E+0	-1.17556E-1	-5.84071E-2	-6.84107E-3
+9.96800E+0	-1.31540E-1	-7.07667E-2	-7.83589E-3
+9.98280E+0	-1.45592E-1	-6.75624E-2	-8.81066E-3
+9.99750E+0	-1.59521E-1	-6.49684E-2	-9.79510E-3
+1.00123E+1	-1.73512E-1	-7.40474E-2	-1.07745E-2
+1.00270E+1	-1.87374E-1	-6.12300E-2	-1.17551E-2
+1.00418E+1	-2.01292E-1	-6.57313E-2	-1.27162E-2
+1.00565E+1	-2.15077E-1	-5.23036E-2	-1.36609E-2
+1.00712E+1	-2.28819E-1	-6.74098E-2	-1.46116E-2
+1.00860E+1	-2.42608E-1	-6.55787E-2	-1.55485E-2
+1.01007E+1	-2.56256E-1	-6.84779E-2	-1.65038E-2
+1.01155E+1	-2.69945E-1	-5.87886E-2	-1.74180E-2
+1.01302E+1	-2.83488E-1	-6.87068E-2	-1.83570E-2
+1.01450E+1	-2.97066E-1	-7.15297E-2	-1.92639E-2
+1.01597E+1	-3.10494E-1	-5.87123E-2	-2.01931E-2
+1.01745E+1	-3.23950E-1	-5.39821E-2	-2.10911E-2
+1.01892E+1	-3.37251E-1	-5.16932E-2	-2.19601E-2
+1.02040E+1	-3.50575E-1	-5.61946E-2	-2.28460E-2
+1.02187E+1	-3.63738E-1	-6.14589E-2	-2.37297E-2
+1.02334E+1	-3.76830E-1	-6.22218E-2	-2.45812E-2
+1.02482E+1	-3.89935E-1	-5.33717E-2	-2.54392E-2
+1.02629E+1	-4.02873E-1	-5.68812E-2	-2.63019E-2
+1.02777E+1	-4.15819E-1	-5.23799E-2	-2.71354E-2
+1.02924E+1	-4.28595E-1	-5.14644E-2	-2.79831E-2
+1.03072E+1	-4.41371E-1	-5.87886E-2	-2.87893E-2
+1.03219E+1	-4.53973E-1	-5.07014E-2	-2.96200E-2
+1.03367E+1	-4.66570E-1	-7.42000E-2	-3.04340E-2
+1.03514E+1	-4.78989E-1	-5.24562E-2	-3.12152E-2
+1.03662E+1	-4.91396E-1	-7.54970E-2	-3.19968E-2
+1.03809E+1	-5.03621E-1	-5.62709E-2	-3.27745E-2
+1.03956E+1	-5.15746E-1	-6.72572E-2	-3.35488E-2
+1.04104E+1	-5.27851E-1	-6.02382E-2	-3.42888E-2
+1.04251E+1	-5.39768E-1	-6.22218E-2	-3.50322E-2
+1.04399E+1	-5.51658E-1	-5.44398E-2	-3.57625E-2
+1.04546E+1	-5.63358E-1	-5.38295E-2	-3.64737E-2
+1.04694E+1	-5.75024E-1	-3.77315E-2	-3.71903E-2
+1.04841E+1	-5.86497E-1	-3.76552E-2	-3.78742E-2
+1.04989E+1	-5.97930E-1	-4.04017E-2	-3.86005E-2
+1.05136E+1	-6.09167E-1	-4.55897E-2	-3.92699E-2
+1.05284E+1	-6.20358E-1	-5.87886E-2	-3.99523E-2
+1.05431E+1	-6.31350E-1	-5.71864E-2	-4.05617E-2
+1.05578E+1	-6.42216E-1	-3.19331E-2	-4.12095E-2
+1.05726E+1	-6.53028E-1	-2.30830E-2	-4.18850E-2
+1.05873E+1	-6.63636E-1	-4.51320E-2	-4.25216E-2
+1.06021E+1	-6.74183E-1	-6.31373E-2	-4.31014E-2
+1.06168E+1	-6.84525E-1	-3.05598E-2	-4.36441E-2
+1.06316E+1	-6.94799E-1	-1.40040E-2	-4.43055E-2
+1.06463E+1	-7.04866E-1	-6.22218E-2	-4.48710E-2
+1.06611E+1	-7.14860E-1	-4.08595E-2	-4.53865E-2
+1.06758E+1	-7.24644E-1	-5.38282E-3	-4.60017E-2
+1.06906E+1	-7.34349E-1	-6.84016E-2	-4.65237E-2
+1.07053E+1	-7.43842E-1	-2.05653E-2	-4.70124E-2
+1.07201E+1	-7.53250E-1	-3.46034E-2	-4.75959E-2
+1.07348E+1	-7.62444E-1	-3.30775E-2	-4.80463E-2
+1.07495E+1	-7.71488E-1	-3.40693E-2	-4.85867E-2
+1.07643E+1	-7.80438E-1	-3.23146E-2	-4.90224E-2
+1.07790E+1	-7.89172E-1	-3.75026E-2	-4.95290E-2
+1.07938E+1	-7.97806E-1	-1.79713E-2	-4.99839E-2
+1.08085E+1	-8.06224E-1	-3.72737E-2	-5.04349E-2
+1.08233E+1	-8.14537E-1	-2.26253E-2	-5.08963E-2
+1.08380E+1	-8.22632E-1	-2.10231E-2	-5.13088E-2
+1.08528E+1	-8.30616E-1	-3.03309E-2	-5.17292E-2
+1.08675E+1	-8.38382E-1	-2.59059E-2	-5.21616E-2
+1.08823E+1	-8.46031E-1	-2.25490E-2	-5.25609E-2
+1.08970E+1	-8.53461E-1	-2.45326E-2	-5.29220E-2
+1.09117E+1	-8.60721E-1	-3.84181E-2	-5.33113E-2
+1.09265E+1	-8.67857E-1	-2.78132E-2	-5.36754E-2
+1.09412E+1	-8.74773E-1	-1.49196E-2	-5.40235E-2
+1.09560E+1	-8.81559E-1	-1.81239E-2	-5.43820E-2
+1.09707E+1	-8.88125E-1	-3.09413E-2	-5.47112E-2
+1.09855E+1	-8.94557E-1	-2.21675E-2	-5.50334E-2
+1.10002E+1	-9.00767E-1	-1.73610E-2	-5.53446E-2
+1.10150E+1	-9.06838E-1	-1.56062E-2	-5.56519E-2
+1.10297E+1	-9.12688E-1	-2.36171E-2	-5.59504E-2
+1.10445E+1	-9.18395E-1	-2.10231E-2	-5.62220E-2
+1.10592E+1	-9.23880E-1	-2.47615E-2	-5.64823E-2
+1.10739E+1	-9.29181E-1	-2.54481E-2	-5.67411E-2
+1.10887E+1	-9.34332E-1	-1.11049E-2	-5.70023E-2
+1.11034E+1	-9.39262E-1	-2.37697E-2	-5.72409E-2
+1.11182E+1	-9.44037E-1	-9.96046E-3	-5.74696E-2
+1.11329E+1	-9.48592E-1	-1.23256E-2	-5.77033E-2
+1.11477E+1	-9.52987E-1	-2.05653E-2	-5.78968E-2
+1.11624E+1	-9.57163E-1	-1.12575E-2	-5.81019E-2
+1.11772E+1	-9.61175E-1	-8.81605E-3	-5.82968E-2
+1.11919E+1	-9.64968E-1	-1.59877E-2	-5.84723E-2
+1.12067E+1	-9.68594E-1	+3.40503E-5	-5.86429E-2
+1.12214E+1	-9.72002E-1	-1.72084E-2	-5.88141E-2
+1.12361E+1	-9.75217E-1	-2.11757E-2	-5.89631E-2
+1.12509E+1	-9.78258E-1	-1.99550E-2	-5.91170E-2
+1.12656E+1	-9.81083E-1	-2.68214E-2	-5.92414E-2
+1.12804E+1	-9.83731E-1	-3.70435E-3	-5.93706E-2
+1.12951E+1	-9.86165E-1	+1.71252E-3	-5.94988E-2
+1.13099E+1	-9.88418E-1	+1.55993E-3	-5.95938E-2
+1.13246E+1	-9.90459E-1	-1.41553E-3	-5.97314E-2
+1.13394E+1	-9.92314E-1	-1.67506E-2	-5.98031E-2
+1.13541E+1	-9.93960E-1	-9.42640E-3	-5.99061E-2
+1.13689E+1	-9.95417E-1	-1.39277E-2	-5.99569E-2
+1.13836E+1	-9.96666E-1	-6.22205E-3	-6.00206E-2
+1.13983E+1	-9.97717E-1	-1.86580E-2	-6.00844E-2
+1.14131E+1	-9.98574E-1	+5.83239E-3	-6.01190E-2
+1.14278E+1	-9.99228E-1	+1.94140E-3	-6.01744E-2
+1.14426E+1	-9.99685E-1	-5.30653E-3	-6.01751E-2
+1.14573E+1	-9.99939E-1	-5.84058E-3	-6.02030E-2
+1.14721E+1	-9.99995E-1	+1.78881E-3	-6.02069E-2
+1.14868E+1	-9.99851E-1	+1.40734E-3	-6.02159E-2
+1.15016E+1	-9.99506E-1	-3.32288E-3	-6.02031E-2
+1.15163E+1	-9.98963E-1	+8.65527E-3	-6.01908E-2
+1.15311E+1	-9.98217E-1	+1.71239E-2	-6.02049E-2
+1.15458E+1	-9.97276E-1	-1.45381E-2	-6.01969E-2
+1.15606E+1	-9.96129E-1	-3.17030E-3	-6.01669E-2
+1.15753E+1	-9.94792E-1	+1.07152E-2	-6.01629E-2
+1.15900E+1	-9.93256E-1	-3.47547E-3	-6.01547E-2
+1.16048E+1	-9.91511E-1	+1.10217E-3	-6.01307E-2
+1.16195E+1	-9.89581E-1	-4.22436E-5	-6.00553E-2
+1.16343E+1	-9.87438E-1	+4.35216E-2	-6.00549E-2
+1.16490E+1	-9.85113E-1	+1.55993E-3	-6.00288E-2
+1.16638E+1	-9.82575E-1	+3.31469E-3	-5.99525E-2
+1.16785E+1	-9.79858E-1	-3.47419E-4	-5.99127E-2
+1.16933E+1	-9.76926E-1	-6.52723E-3	-5.98495E-2
+1.17080E+1	-9.73819E-1	-1.72071E-3	-5.97821E-2
+1.17228E+1	-9.70495E-1	+3.61987E-3	-5.97218E-2
+1.17375E+1	-9.67001E-1	+4.45910E-3	-5.96518E-2
+1.17522E+1	-9.63314E-1	+6.29015E-3	-5.95467E-2
+1.17670E+1	-9.59409E-1	-2.02589E-3	-5.94711E-2
+1.17817E+1	-9.55340E-1	+7.89233E-3	-5.93665E-2
+1.17965E+1	-9.51051E-1	+2.01769E-3	-5.92556E-2
+1.18112E+1	-9.46601E-1	+6.74792E-3	-5.91460E-2
+1.18260E+1	-9.41931E-1	+1.38433E-2	-5.90248E-2
+1.18407E+1	-9.37105E-1	+1.12493E-2	-5.88745E-2
+1.18555E+1	-9.32058E-1	+6.29015E-3	-5.87338E-2
+1.18702E+1	-9.26859E-1	+9.41821E-3	-5.85759E-2
+1.18850E+1	-9.21440E-1	+6.06127E-3	-5.84292E-2
+1.18997E+1	-9.15873E-1	+8.04491E-3	-5.82567E-2
+1.19144E+1	-9.10124E-1	+1.84972E-2	-5.80756E-2
+1.19292E+1	-9.04153E-1	+1.60558E-2	-5.78818E-2
+1.19439E+1	-8.98043E-1	+1.92601E-2	-5.76865E-2
+1.19587E+1	-8.91711E-1	+2.43718E-2	-5.74665E-2
+1.19734E+1	-8.85243E-1	+1.97179E-2	-5.72387E-2
+1.19882E+1	-8.78555E-1	+1.50640E-2	-5.69887E-2
+1.20029E+1	-8.71736E-1	+1.33855E-2	-5.67626E-2
+1.20177E+1	-8.64696E-1	+1.28514E-2	-5.65110E-2
+1.20324E+1	-8.57531E-1	+1.59032E-2	-5.62446E-2
+1.20472E+1	-8.50146E-1	+1.72765E-2	-5.59632E-2
+1.20619E+1	-8.42641E-1	+2.49059E-2	-5.56602E-2
+1.20766E+1	-8.34968E-1	+1.97179E-2	-5.53549E-2
+1.20914E+1	-8.27076E-1	+1.52928E-2	-5.50375E-2
+1.21061E+1	-8.19073E-1	+1.45299E-2	-5.47071E-2
+1.21209E+1	-8.10850E-1	+1.72765E-2	-5.43431E-2
+1.21356E+1	-8.02522E-1	+1.40721E-2	-5.39905E-2
+1.21504E+1	-7.93975E-1	+3.07042E-2	-5.36149E-2
+1.21651E+1	-7.85329E-1	+2.26934E-2	-5.32303E-2
+1.21799E+1	-7.76466E-1	+2.88732E-2	-5.28477E-2
+1.21946E+1	-7.67508E-1	+2.58214E-2	-5.24187E-2
+1.22094E+1	-7.58335E-1	+3.61974E-2	-5.20262E-2
+1.22241E+1	-7.49073E-1	+2.24645E-2	-5.15736E-2
+1.22388E+1	-7.39662E-1	+3.37560E-2	-5.11496E-2
+1.22536E+1	-7.30039E-1	+2.24645E-2	-5.06483E-2
+1.22683E+1	-7.20335E-1	+5.42790E-2	-5.01995E-2
+1.22831E+1	-7.10421E-1	+2.09386E-2	-4.97333E-2
+1.22978E+1	-7.00432E-1	+3.25353E-2	-4.91829E-2
+1.23126E+1	-6.90235E-1	+5.87804E-2	-4.87099E-2
+1.23273E+1	-6.79969E-1	+6.13757E-3	-4.81777E-2
+1.23421E+1	-6.69496E-1	+3.29167E-2	-4.75857E-2
+1.23568E+1	-6.58961E-1	+6.80882E-2	-4.70936E-2
+1.23716E+1	-6.48222E-1	+1.55980E-2	-4.65439E-2
+1.23863E+1	-6.37427E-1	+1.69713E-2	-4.58889E-2
+1.24010E+1	-6.26505E-1	+6.68675E-2	-4.53084E-2
+1.24158E+1	-6.15383E-1	+6.93090E-2	-4.47537E-2
+1.24305E+1	-6.04213E-1	+2.94835E-2	-4.41482E-2
+1.24453E+1	-5.92846E-1	+2.00231E-2	-4.34622E-2
+1.24600E+1	-5.81438E-1	+3.46715E-2	-4.28045E-2
+1.24748E+1	-5.69836E-1	+4.06224E-2	-4.21599E-2
+1.24895E+1	-5.58198E-1	+4.61156E-2	-4.14787E-2
+1.25043E+1	-5.46369E-1	+5.63390E-2	-4.08095E-2
+1.25190E+1	-5.34512E-1	+5.98485E-2	-4.01077E-2
+1.25338E+1	-5.22466E-1	+5.61101E-2	-3.94164E-2
+1.25485E+1	-5.10397E-1	+5.75597E-2	-3.86848E-2
+1.25633E+1	-4.98145E-1	+6.25951E-2	-3.79575E-2
+1.25780E+1	-4.85875E-1	+5.69493E-2	-3.71946E-2
+1.25927E+1	-4.73509E-1	+6.49602E-2	-3.64655E-2
+1.26075E+1	-4.60964E-1	+5.54997E-2	-3.56697E-2
+1.26222E+1	-4.48412E-1	+5.92382E-2	-3.49041E-2
+1.26370E+1	-4.35684E-1	+4.68785E-2	-3.40734E-2
+1.26517E+1	-4.22956E-1	+5.26769E-2	-3.33006E-2
+1.26665E+1	-4.10056E-1	+3.52056E-2	-3.24666E-2
+1.26812E+1	-3.97162E-1	+5.46605E-2	-3.16336E-2
+1.26960E+1	-3.84100E-1	+4.87859E-2	-3.08064E-2
+1.27107E+1	-3.71050E-1	+5.90856E-2	-2.99488E-2
+1.27255E+1	-3.57837E-1	+6.67150E-2	-2.90870E-2
+1.27402E+1	-3.44641E-1	+6.44261E-2	-2.81932E-2
+1.27549E+1	-3.31378E-1	+6.53417E-2	-2.73056E-2
+1.27697E+1	-3.17957E-1	+6.03063E-2	-2.64066E-2
+1.27844E+1	-3.04564E-1	+6.33580E-2	-2.55005E-2
+1.27992E+1	-2.91019E-1	+6.64861E-2	-2.45500E-2
+1.28139E+1	-2.77507E-1	+6.29003E-2	-2.36400E-2
+1.28287E+1	-2.63847E-1	+5.34398E-2	-2.26862E-2
+1.28434E+1	-2.50227E-1	+6.13744E-2	-2.17642E-2
+1.28582E+1	-2.36465E-1	+6.48839E-2	-2.07905E-2
+1.28729E+1	-2.22748E-1	+7.43444E-2	-1.98202E-2
+1.28877E+1	-2.08893E-1	+6.74779E-2	-1.88273E-2
+1.29024E+1	-1.95090E-1	+6.73253E-2	-1.78386E-2
+1.29171E+1	-1.81249E-1	+6.74016E-2	-1.68805E-2
+1.29319E+1	-1.67277E-1	+6.07640E-2	-1.58614E-2
+1.29466E+1	-1.53366E-1	+6.03063E-2	-1.49164E-2
+1.29614E+1	-1.39329E-1	+6.51891E-2	-1.39081E-2
+1.29761E+1	-1.25360E-1	+7.47258E-2	-1.29156E-2
+1.29909E+1	-1.11270E-1	+6.99193E-2	-1.18871E-2
+1.30056E+1	-9.72538E-2	+6.72490E-2	-1.08760E-2
+1.30204E+1	-8.31224E-2	+7.48021E-2	-9.87065E-3
+1.30351E+1	-6.90700E-2	+5.98485E-2	-8.85937E-3
+1.30499E+1	-5.49081E-2	+6.13744E-2	-7.85730E-3
+1.30646E+1	-4.08309E-2	+6.80120E-2	-6.84958E-3
+1.30793E+1	-2.67456E-2	+7.34288E-2	-5.81323E-3
+1.30941E+1	-1.25591E-2	+6.89275E-2	-4.77100E-3
+1.31088E+1	+1.53398E-3	+7.31236E-2	-3.73279E-3
+1.31236E+1	+1.57227E-2	+6.67150E-2	-2.75090E-3
+1.31383E+1	+2.98123E-2	+5.90856E-2	-1.72839E-3
+1.31531E+1	+4.39919E-2	+6.67150E-2	-7.10014E-4
+1.31678E+1	+5.80668E-2	+7.88457E-2	+3.02461E-4
+1.31826E+1	+7.22259E-2	+6.77831E-2	+1.33890E-3
+1.31973E+1	+8.62749E-2	+7.49547E-2	+2.35173E-3
+1.32121E+1	+1.00402E-1	+6.83934E-2	+3.38371E-3
+1.32268E+1	+1.14414E-1	+6.27477E-2	+4.36613E-3
+1.32415E+1	+1.28403E-1	+6.00774E-2	+5.35181E-3
+1.32563E+1	+1.42461E-1	+7.22081E-2	+6.35192E-3
+1.32710E+1	+1.56397E-1	+7.08348E-2	+7.35433E-3
+1.32858E+1	+1.70395E-1	+6.29766E-2	+8.34586E-3
+1.33005E+1	+1.84265E-1	+7.62517E-2	+9.33525E-3
+1.33153E+1	+1.98192E-1	+6.61809E-2	+1.03263E-2
+1.33300E+1	+2.11986E-1	+6.22899E-2	+1.12794E-2
+1.33448E+1	+2.25831E-1	+5.49657E-2	+1.22219E-2
+1.33595E+1	+2.39538E-1	+7.15215E-2	+1.31839E-2
+1.33743E+1	+2.53289E-1	+7.29711E-2	+1.41348E-2
+1.33890E+1	+2.66898E-1	+6.19847E-2	+1.50863E-2
+1.34038E+1	+2.80545E-1	+6.46550E-2	+1.60252E-2
+1.34185E+1	+2.94044E-1	+6.67150E-2	+1.69620E-2
+1.34332E+1	+3.07485E-1	+6.77831E-2	+1.78746E-2
+1.34480E+1	+3.20955E-1	+5.93144E-2	+1.88003E-2
+1.34627E+1	+3.34271E-1	+5.68730E-2	+1.96884E-2
+1.34775E+1	+3.47610E-1	+4.83281E-2	+2.05957E-2
+1.34922E+1	+3.60789E-1	+6.28240E-2	+2.14651E-2
+1.35070E+1	+3.73986E-1	+6.25951E-2	+2.23594E-2
+1.35217E+1	+3.87019E-1	+7.14452E-2	+2.32465E-2
+1.35365E+1	+4.00064E-1	+6.07640E-2	+2.41157E-2
+1.35512E+1	+4.12940E-1	+6.12218E-2	+2.49603E-2
+1.35660E+1	+4.25821E-1	+5.58812E-2	+2.58083E-2
+1.35807E+1	+4.38530E-1	+5.38976E-2	+2.66366E-2
+1.35954E+1	+4.51152E-1	+5.14562E-2	+2.74644E-2
+1.36102E+1	+4.63770E-1	+5.22191E-2	+2.82629E-2
+1.36249E+1	+4.76209E-1	+4.88622E-2	+2.90826E-2
+1.36397E+1	+4.88638E-1	+5.06932E-2	+2.98749E-2
+1.36544E+1	+5.00885E-1	+4.93199E-2	+3.06505E-2
+1.36692E+1	+5.13116E-1	+5.33635E-2	+3.14196E-2
+1.36839E+1	+5.25161E-1	+4.59630E-2	+3.21855E-2
+1.36987E+1	+5.37183E-1	+5.08458E-2	+3.29497E-2
+1.37134E+1	+5.49016E-1	+3.79521E-2	+3.36805E-2
+1.37282E+1	+5.60820E-1	+4.52001E-2	+3.44242E-2
+1.37429E+1	+5.72433E-1	+3.81047E-2	+3.51549E-2
+1.37576E+1	+5.83931E-1	+4.35979E-2	+3.58770E-2
+1.37724E+1	+5.95391E-1	+4.87096E-2	+3.65698E-2
+1.37871E+1	+6.06655E-1	+6.35106E-2	+3.72341E-2
+1.38019E+1	+6.17873E-1	+5.77123E-2	+3.78862E-2
+1.38166E+1	+6.28893E-1	+3.68077E-2	+3.85469E-2
+1.38314E+1	+6.39862E-1	+2.18541E-2	+3.92263E-2
+1.38461E+1	+6.50628E-1	+3.92491E-2	+3.98870E-2
+1.38609E+1	+6.61338E-1	+6.09166E-2	+4.05236E-2
+1.38756E+1	+6.71843E-1	+5.70256E-2	+4.10828E-2
+1.38904E+1	+6.82285E-1	+1.71239E-2	+4.17218E-2
+1.39051E+1	+6.92520E-1	+4.12328E-2	+4.23477E-2
+1.39198E+1	+7.02618E-1	+6.01537E-2	+4.28810E-2
+1.39346E+1	+7.12644E-1	+1.79631E-2	+4.34315E-2
+1.39493E+1	+7.22460E-1	+3.05516E-2	+4.40685E-2
+1.39641E+1	+7.32197E-1	+6.26714E-2	+4.45572E-2
+1.39788E+1	+7.41723E-1	+1.14781E-2	+4.51037E-2
+1.39936E+1	+7.51165E-1	+4.95488E-2	+4.56516E-2
+1.40083E+1	+7.60394E-1	+1.82683E-2	+4.61311E-2
+1.40231E+1	+7.69532E-1	+4.32927E-2	+4.66662E-2
+1.40378E+1	+7.78456E-1	+2.36852E-2	+4.71352E-2
+1.40526E+1	+7.87284E-1	+4.33690E-2	+4.76274E-2
+1.40673E+1	+7.95895E-1	+2.76525E-2	+4.80775E-2
+1.40820E+1	+8.04348E-1	+3.30693E-2	+4.85070E-2
+1.40968E+1	+8.12698E-1	+2.76525E-2	+4.89788E-2
+1.41115E+1	+8.20829E-1	+2.88732E-2	+4.93925E-2
+1.41263E+1	+8.28850E-1	+3.08568E-2	+4.97949E-2
+1.41410E+1	+8.36653E-1	+2.31511E-2	+5.02263E-2
+1.41558E+1	+8.44340E-1	+1.75817E-2	+5.06180E-2
+1.41705E+1	+8.51808E-1	+2.18541E-2	+5.09928E-2
+1.41853E+1	+8.59155E-1	+3.15434E-2	+5.13573E-2
+1.42000E+1	+8.66281E-1	+3.03990E-2	+5.17253E-2
+1.42148E+1	+8.73282E-1	+2.29222E-2	+5.20899E-2
+1.42295E+1	+8.80061E-1	+1.62084E-2	+5.24409E-2
+1.42442E+1	+8.86666E-1	+1.86498E-2	+5.27461E-2
+1.42590E+1	+8.93138E-1	+1.59032E-2	+5.30652E-2
+1.42737E+1	+8.99388E-1	+2.29222E-2	+5.33667E-2
+1.42885E+1	+9.05500E-1	+1.36144E-2	+5.36693E-2
+1.43032E+1	+9.11391E-1	+1.55980E-2	+5.39566E-2
+1.43180E+1	+9.17138E-1	+1.60558E-2	+5.42402E-2
+1.43327E+1	+9.22664E-1	+1.33855E-2	+5.45087E-2
+1.43475E+1	+9.28043E-1	+1.49114E-2	+5.47832E-2
+1.43622E+1	+9.33200E-1	+2.58214E-2	+5.50191E-2
+1.43770E+1	+9.38205E-1	+2.18541E-2	+5.52332E-2
+1.43917E+1	+9.42989E-1	+1.20885E-2	+5.54730E-2
+1.44065E+1	+9.47616E-1	+1.32329E-2	+5.56922E-2
+1.44212E+1	+9.52024E-1	+1.26988E-2	+5.59001E-2
+1.44359E+1	+9.56242E-1	+1.52928E-2	+5.60887E-2
+1.44507E+1	+9.60297E-1	+1.04100E-2	+5.62820E-2
+1.44654E+1	+9.64133E-1	+1.19359E-2	+5.64601E-2
+1.44802E+1	+9.67802E-1	-2.71253E-3	+5.66215E-2
+1.44949E+1	+9.71253E-1	+1.36144E-2	+5.67944E-2
+1.45097E+1	+9.74533E-1	+1.78105E-2	+5.69510E-2
+1.45244E+1	+9.77597E-1	+1.10204E-2	+5.70981E-2
+1.45392E+1	+9.80485E-1	+2.18541E-2	+5.72191E-2
+1.45539E+1	+9.83158E-1	+1.14018E-2	+5.73225E-2
+1.45687E+1	+9.85652E-1	+5.22204E-3	+5.74355E-2
+1.45834E+1	+9.87933E-1	+1.66661E-2	+5.75391E-2
+1.45981E+1	+9.90018E-1	+4.15392E-3	+5.76312E-2
+1.46129E+1	+9.91918E-1	-4.92506E-3	+5.77345E-2
+1.46276E+1	+9.93608E-1	-8.81477E-4	+5.77912E-2
+1.46424E+1	+9.95109E-1	+4.76427E-3	+5.78554E-2
+1.46571E+1	+9.96403E-1	-5.76429E-3	+5.79202E-2
+1.46719E+1	+9.97505E-1	-4.69617E-3	+5.79662E-2
+1.46866E+1	+9.98401E-1	+2.29222E-2	+5.79987E-2
+1.47014E+1	+9.99102E-1	+5.67980E-3	+5.80166E-2
+1.47161E+1	+9.99600E-1	-2.86512E-3	+5.80464E-2
+1.47309E+1	+9.99901E-1	-5.07764E-3	+5.80868E-2
