+0.00000E+0	+0.00000E+0	-5.49595E-3	-2.74797E-7
+1.47000E-2	+1.40930E-2	+8.70486E-2	+1.65161E-3
+2.95000E-2	+2.82790E-2	+1.29544E-1	+3.92735E-3
+4.42000E-2	+4.23635E-2	+1.73490E-1	+6.75336E-3
+5.90000E-2	+5.65354E-2	+2.01871E-1	+9.75629E-3
+7.37000E-2	+7.06002E-2	+2.00269E-1	+1.27931E-2
+8.85000E-2	+8.47465E-2	+2.07669E-1	+1.57859E-2
+1.03200E-1	+9.87804E-2	+2.13468E-1	+1.88624E-2
+1.18000E-1	+1.12890E-1	+2.16138E-1	+2.17506E-2
+1.32700E-1	+1.26882E-1	+2.01337E-1	+2.46118E-2
+1.47500E-1	+1.40943E-1	+1.92487E-1	+2.74642E-2
+1.62200E-1	+1.54881E-1	+1.69828E-1	+3.02314E-2
+1.76900E-1	+1.68789E-1	+1.57544E-1	+3.28148E-2
+1.91700E-1	+1.82757E-1	+1.47245E-1	+3.52458E-2
+2.06400E-1	+1.96595E-1	+1.54569E-1	+3.76223E-2
+2.21200E-1	+2.10487E-1	+1.71125E-1	+3.98892E-2
+2.35900E-1	+2.24243E-1	+1.59375E-1	+4.21720E-2
+2.50700E-1	+2.38048E-1	+1.40912E-1	+4.43363E-2
+2.65400E-1	+2.51712E-1	+1.06961E-1	+4.63810E-2
+2.80200E-1	+2.65419E-1	+1.06809E-1	+4.82734E-2
+2.94900E-1	+2.78980E-1	+1.11768E-1	+5.00857E-2
+3.09700E-1	+2.92577E-1	+1.34961E-1	+5.18834E-2
+3.24400E-1	+3.06025E-1	+1.45032E-1	+5.35844E-2
+3.39100E-1	+3.19411E-1	+1.26416E-1	+5.52424E-2
+3.53900E-1	+3.32825E-1	+9.68142E-2	+5.67933E-2
+3.68600E-1	+3.46081E-1	+7.64437E-2	+5.82844E-2
+3.83400E-1	+3.59358E-1	+8.35391E-2	+5.97051E-2
+3.98100E-1	+3.72474E-1	+8.99478E-2	+6.11311E-2
+4.12900E-1	+3.85605E-1	+8.76590E-2	+6.24830E-2
+4.27600E-1	+3.98569E-1	+7.94955E-2	+6.37347E-2
+4.42400E-1	+4.11542E-1	+9.13974E-2	+6.49330E-2
+4.57100E-1	+4.24346E-1	+7.98007E-2	+6.60718E-2
+4.71900E-1	+4.37151E-1	+8.00296E-2	+6.71591E-2
+4.86600E-1	+4.49783E-1	+7.42312E-2	+6.81919E-2
+5.01400E-1	+4.62410E-1	+5.69888E-2	+6.91613E-2
+5.16100E-1	+4.74860E-1	+6.26345E-2	+7.00874E-2
+5.30800E-1	+4.87215E-1	+4.89016E-2	+7.09788E-2
+5.45600E-1	+4.99557E-1	+5.21060E-2	+7.17991E-2
+5.60300E-1	+5.11716E-1	+4.54684E-2	+7.25940E-2
+5.75100E-1	+5.23855E-1	+4.76809E-2	+7.33627E-2
+5.89800E-1	+5.35807E-1	+4.23404E-2	+7.41012E-2
+6.04600E-1	+5.47734E-1	+4.05856E-2	+7.48119E-2
+6.19300E-1	+5.59470E-1	+4.47818E-2	+7.54827E-2
+6.34100E-1	+5.71174E-1	+4.03567E-2	+7.61553E-2
+6.48800E-1	+5.82685E-1	+5.67599E-2	+7.67845E-2
+6.63600E-1	+5.94158E-1	+5.39370E-2	+7.73687E-2
+6.78300E-1	+6.05435E-1	+4.85202E-2	+7.79173E-2
+6.93000E-1	+6.16591E-1	+3.73050E-2	+7.84456E-2
+7.07800E-1	+6.27700E-1	+1.19754E-2	+7.89745E-2
+7.22500E-1	+6.38608E-1	+4.88003E-3	+7.95052E-2
+7.37300E-1	+6.49463E-1	+2.60135E-2	+7.99892E-2
+7.52000E-1	+6.60114E-1	+5.38607E-2	+8.04251E-2
+7.66800E-1	+6.70706E-1	+4.63076E-2	+8.08125E-2
+7.81500E-1	+6.81093E-1	+1.92996E-2	+8.12247E-2
+7.96300E-1	+6.91413E-1	+1.74685E-2	+8.16316E-2
+8.11000E-1	+7.01526E-1	+2.98281E-2	+8.19915E-2
+8.25800E-1	+7.11567E-1	+1.06784E-2	+8.23408E-2
+8.40500E-1	+7.21398E-1	+1.86892E-2	+8.26897E-2
+8.55200E-1	+7.31086E-1	+2.20462E-2	+8.29944E-2
+8.70000E-1	+7.40694E-1	+1.62478E-2	+8.33050E-2
+8.84700E-1	+7.50088E-1	+2.54794E-2	+8.35970E-2
+8.99500E-1	+7.59396E-1	+1.30435E-2	+8.38878E-2
+9.14200E-1	+7.68490E-1	+2.13595E-2	+8.41515E-2
+9.29000E-1	+7.77492E-1	+1.99099E-2	+8.44129E-2
+9.43700E-1	+7.86278E-1	+1.92996E-2	+8.46567E-2
+9.58500E-1	+7.94965E-1	+1.37301E-2	+8.48970E-2
+9.73200E-1	+8.03436E-1	+1.28909E-2	+8.51130E-2
+9.88000E-1	+8.11803E-1	+1.29672E-2	+8.53310E-2
+1.00270E+0	+8.19952E-1	+1.02969E-2	+8.55319E-2
+1.01740E+0	+8.27938E-1	+1.13650E-2	+8.57272E-2
+1.03220E+0	+8.35812E-1	+1.41116E-2	+8.59232E-2
+1.04690E+0	+8.43466E-1	+5.94814E-3	+8.61043E-2
+1.06170E+0	+8.51003E-1	+1.29672E-2	+8.62744E-2
+1.07640E+0	+8.58320E-1	+9.38137E-3	+8.64371E-2
+1.09120E+0	+8.65514E-1	+1.46457E-2	+8.65978E-2
+1.10590E+0	+8.72487E-1	+1.09072E-2	+8.67578E-2
+1.12070E+0	+8.79332E-1	+4.95632E-3	+8.69019E-2
+1.13540E+0	+8.85956E-1	+1.13650E-2	+8.70338E-2
+1.15020E+0	+8.92447E-1	+8.61843E-3	+8.71718E-2
+1.16490E+0	+8.98717E-1	+1.07547E-2	+8.72988E-2
+1.17960E+0	+9.04807E-1	+5.03262E-3	+8.74213E-2
+1.19440E+0	+9.10758E-1	+8.16067E-3	+8.75323E-2
+1.20910E+0	+9.16487E-1	+9.53396E-3	+8.76478E-2
+1.22390E+0	+9.22072E-1	+3.43044E-3	+8.77462E-2
+1.23860E+0	+9.27434E-1	+5.94814E-3	+8.78469E-2
+1.25340E+0	+9.32647E-1	+2.97268E-3	+8.79464E-2
+1.26810E+0	+9.37639E-1	+1.18991E-2	+8.80257E-2
+1.28290E+0	+9.42477E-1	+6.93996E-3	+8.81213E-2
+1.29760E+0	+9.47094E-1	+6.32961E-3	+8.81980E-2
+1.31240E+0	+9.51553E-1	+1.10598E-2	+8.82762E-2
+1.32710E+0	+9.55792E-1	+9.07619E-3	+8.83405E-2
+1.34180E+0	+9.59841E-1	+3.65932E-3	+8.84137E-2
+1.35660E+0	+9.63725E-1	+8.61843E-3	+8.84826E-2
+1.37130E+0	+9.67391E-1	+1.67568E-3	+8.85334E-2
+1.38610E+0	+9.70887E-1	+3.78685E-4	+8.85905E-2
+1.40080E+0	+9.74166E-1	+9.61025E-3	+8.86412E-2
+1.41560E+0	+9.77273E-1	+7.09255E-3	+8.86947E-2
+1.43030E+0	+9.80163E-1	+4.42226E-3	+8.87283E-2
+1.44510E+0	+9.82877E-1	-6.18259E-3	+8.87787E-2
+1.45980E+0	+9.85376E-1	+2.97268E-3	+8.88079E-2
+1.47460E+0	+9.87694E-1	+1.25857E-2	+8.88443E-2
+1.48930E+0	+9.89800E-1	+3.81191E-3	+8.88658E-2
+1.50410E+0	+9.91722E-1	-2.36790E-3	+8.88918E-2
+1.51880E+0	+9.93433E-1	-2.82566E-3	+8.89082E-2
+1.53350E+0	+9.94947E-1	-1.60496E-3	+8.89252E-2
+1.54830E+0	+9.96271E-1	-3.05454E-3	+8.89497E-2
+1.56300E+0	+9.97388E-1	-2.90195E-3	+8.89510E-2
+1.57780E+0	+9.98313E-1	+1.37051E-3	+8.89494E-2
+1.59250E+0	+9.99032E-1	+2.43862E-3	+8.89574E-2
+1.60730E+0	+9.99556E-1	+3.78685E-4	+8.89550E-2
+1.62200E+0	+9.99876E-1	-1.75755E-3	+8.89680E-2
+1.63680E+0	+9.99999E-1	+1.49803E-4	+8.89525E-2
+1.65150E+0	+9.99921E-1	-8.42018E-4	+8.89457E-2
+1.66630E+0	+9.99642E-1	-3.35972E-3	+8.89308E-2
+1.68100E+0	+9.99166E-1	+2.20974E-3	+8.89169E-2
+1.69570E+0	+9.98491E-1	-6.13137E-4	+8.89061E-2
+1.71050E+0	+9.97612E-1	+3.88821E-3	+8.88856E-2
+1.72520E+0	+9.96539E-1	+2.97268E-3	+8.88680E-2
+1.74000E+0	+9.95260E-1	-2.44419E-3	+8.88550E-2
+1.75470E+0	+9.93790E-1	+1.75198E-3	+8.88245E-2
+1.76950E+0	+9.92111E-1	-9.08176E-3	+8.88108E-2
+1.78420E+0	+9.90246E-1	+8.84731E-3	+8.87863E-2
+1.79900E+0	+9.88170E-1	-5.72483E-3	+8.87584E-2
+1.81370E+0	+9.85910E-1	-6.79295E-3	+8.87267E-2
+1.82850E+0	+9.83437E-1	+5.71926E-3	+8.86995E-2
+1.84320E+0	+9.80785E-1	+4.57485E-3	+8.86898E-2
+1.85790E+0	+9.77938E-1	-2.74937E-3	+8.86308E-2
+1.87270E+0	+9.74876E-1	-6.18259E-3	+8.86125E-2
+1.88740E+0	+9.71640E-1	+2.82009E-3	+8.85760E-2
+1.90220E+0	+9.68187E-1	-5.87742E-3	+8.85396E-2
+1.91690E+0	+9.64565E-1	-2.06272E-3	+8.85003E-2
+1.93170E+0	+9.60724E-1	+2.28603E-3	+8.84567E-2
+1.94640E+0	+9.56717E-1	-5.03819E-3	+8.84095E-2
+1.96120E+0	+9.52492E-1	-4.12266E-3	+8.83658E-2
+1.97590E+0	+9.48105E-1	-1.45237E-3	+8.83152E-2
+1.99070E+0	+9.43498E-1	-4.35154E-3	+8.82623E-2
+2.00540E+0	+9.38734E-1	-6.18259E-3	+8.82078E-2
+2.02010E+0	+9.33784E-1	-1.11417E-2	+8.81498E-2
+2.03490E+0	+9.28613E-1	+5.31273E-4	+8.80875E-2
+2.04960E+0	+9.23291E-1	-4.50413E-3	+8.80315E-2
+2.06440E+0	+9.17749E-1	-3.20713E-3	+8.79610E-2
+2.07910E+0	+9.12060E-1	-9.94606E-4	+8.78879E-2
+2.09390E+0	+9.06150E-1	-3.97007E-3	+8.78165E-2
+2.10860E+0	+9.00099E-1	-7.40330E-3	+8.77364E-2
+2.12340E+0	+8.93827E-1	-7.40330E-3	+8.76587E-2
+2.13810E+0	+8.87419E-1	-4.12266E-3	+8.75756E-2
+2.15290E+0	+8.80789E-1	-6.89431E-4	+8.74933E-2
+2.16760E+0	+8.74028E-1	-5.72483E-3	+8.74016E-2
+2.18230E+0	+8.67094E-1	-5.41966E-3	+8.73044E-2
+2.19710E+0	+8.59939E-1	-6.71665E-3	+8.72030E-2
+2.21180E+0	+8.52660E-1	-7.93736E-3	+8.70945E-2
+2.22660E+0	+8.45161E-1	-6.48777E-3	+8.69868E-2
+2.24130E+0	+8.37544E-1	-9.53953E-3	+8.68724E-2
+2.25610E+0	+8.29708E-1	-7.86106E-3	+8.67532E-2
+2.27080E+0	+8.21759E-1	-1.56430E-2	+8.66239E-2
+2.28560E+0	+8.13591E-1	-6.25889E-3	+8.65000E-2
+2.30030E+0	+8.05316E-1	-4.80930E-3	+8.63587E-2
+2.31510E+0	+7.96823E-1	-1.51853E-2	+8.62094E-2
+2.32980E+0	+7.88228E-1	-1.28965E-2	+8.60727E-2
+2.34460E+0	+7.79418E-1	-7.63218E-3	+8.59088E-2
+2.35930E+0	+7.70511E-1	-9.23435E-3	+8.57479E-2
+2.37400E+0	+7.61451E-1	-1.03025E-2	+8.55725E-2
+2.38880E+0	+7.52177E-1	-1.32779E-2	+8.53893E-2
+2.40350E+0	+7.42815E-1	-1.38883E-2	+8.51981E-2
+2.41830E+0	+7.33241E-1	-8.77659E-3	+8.50113E-2
+2.43300E+0	+7.23586E-1	-1.51853E-2	+8.47957E-2
+2.44780E+0	+7.13719E-1	-1.73215E-2	+8.45740E-2
+2.46250E+0	+7.03777E-1	-7.17442E-3	+8.43525E-2
+2.47730E+0	+6.93626E-1	-2.12888E-2	+8.41107E-2
+2.49200E+0	+6.83406E-1	-2.24332E-2	+8.38693E-2
+2.50680E+0	+6.72978E-1	-1.77793E-2	+8.36044E-2
+2.52150E+0	+6.62488E-1	-1.17521E-2	+8.33252E-2
+2.53620E+0	+6.51865E-1	-2.28910E-2	+8.30401E-2
+2.55100E+0	+6.41040E-1	-2.64005E-2	+8.27449E-2
+2.56570E+0	+6.30159E-1	-1.38883E-2	+8.24244E-2
+2.58050E+0	+6.19079E-1	-1.48038E-2	+8.20834E-2
+2.59520E+0	+6.07950E-1	-2.70108E-2	+8.17350E-2
+2.61000E+0	+5.96623E-1	-3.86838E-2	+8.13724E-2
+2.62470E+0	+5.85254E-1	-3.39536E-2	+8.10117E-2
+2.63950E+0	+5.73690E-1	-2.99100E-2	+8.06057E-2
+2.65420E+0	+5.62090E-1	-1.70926E-2	+8.01767E-2
+2.66900E+0	+5.50298E-1	-9.38694E-3	+7.97051E-2
+2.68370E+0	+5.38476E-1	-1.28965E-2	+7.92148E-2
+2.69840E+0	+5.26547E-1	-2.86893E-2	+7.86901E-2
+2.71320E+0	+5.14432E-1	-4.29563E-2	+7.81658E-2
+2.72790E+0	+5.02295E-1	-5.31797E-2	+7.76153E-2
+2.74270E+0	+4.89976E-1	-4.73813E-2	+7.70435E-2
+2.75740E+0	+4.77642E-1	-4.76865E-2	+7.64031E-2
+2.77220E+0	+4.65128E-1	-5.53159E-2	+7.57451E-2
+2.78690E+0	+4.52606E-1	-4.79154E-2	+7.50387E-2
+2.80170E+0	+4.39908E-1	-5.24167E-2	+7.43129E-2
+2.81640E+0	+4.27208E-1	-4.97464E-2	+7.35159E-2
+2.83120E+0	+4.14336E-1	-5.53159E-2	+7.26891E-2
+2.84590E+0	+4.01469E-1	-5.80625E-2	+7.18157E-2
+2.86060E+0	+3.88522E-1	-7.15665E-2	+7.09126E-2
+2.87540E+0	+3.75408E-1	-7.88907E-2	+6.98866E-2
+2.89010E+0	+3.62309E-1	-8.22477E-2	+6.88483E-2
+2.90490E+0	+3.49048E-1	-8.01877E-2	+6.77290E-2
+2.91960E+0	+3.35806E-1	-7.69834E-2	+6.65622E-2
+2.93440E+0	+3.22408E-1	-7.66782E-2	+6.53497E-2
+2.94910E+0	+3.09035E-1	-8.27054E-2	+6.40542E-2
+2.96390E+0	+2.95510E-1	-8.61386E-2	+6.27232E-2
+2.97860E+0	+2.82017E-1	-9.80405E-2	+6.12914E-2
+2.99340E+0	+2.68376E-1	-1.06051E-1	+5.97787E-2
+3.00810E+0	+2.54773E-1	-1.18030E-1	+5.81904E-2
+3.02280E+0	+2.41120E-1	-1.44198E-1	+5.65273E-2
+3.03760E+0	+2.27325E-1	-1.49005E-1	+5.46983E-2
+3.05230E+0	+2.13579E-1	-1.47098E-1	+5.28157E-2
+3.06710E+0	+1.99696E-1	-1.32907E-1	+5.08747E-2
+3.08180E+0	+1.85867E-1	-1.39239E-1	+4.88083E-2
+3.09660E+0	+1.71906E-1	-1.23218E-1	+4.66552E-2
+3.11130E+0	+1.58006E-1	-1.28024E-1	+4.43910E-2
+3.12610E+0	+1.43980E-1	-1.60373E-1	+4.20222E-2
+3.14080E+0	+1.30019E-1	-1.78683E-1	+3.94713E-2
+3.15560E+0	+1.15938E-1	-2.04699E-1	+3.67313E-2
+3.17030E+0	+1.01928E-1	-2.03021E-1	+3.38865E-2
+3.18500E+0	+8.78986E-2	-2.22018E-1	+3.08045E-2
+3.19980E+0	+7.37558E-2	-2.15228E-1	+2.76087E-2
+3.21450E+0	+5.96939E-2	-2.19806E-1	+2.42718E-2
+3.22930E+0	+4.55243E-2	-2.38879E-1	+2.09168E-2
+3.24400E+0	+3.14414E-2	-2.32470E-1	+1.74266E-2
+3.25880E+0	+1.72564E-2	-2.43609E-1	+1.39594E-2
+3.27350E+0	+3.16383E-3	-2.34530E-1	+1.05211E-2
+3.28830E+0	-1.10253E-2	-2.35064E-1	+6.99670E-3
+3.30300E+0	-2.51163E-2	-2.19577E-1	+3.50635E-3
+3.31780E+0	-3.92981E-2	-2.23163E-1	+4.87545E-5
+3.33250E+0	-5.33763E-2	-2.37582E-1	-3.28032E-3
+3.34730E+0	-6.75396E-2	-2.21942E-1	-6.64604E-3
+3.36200E+0	-8.15937E-2	-2.25451E-1	-9.84690E-3
+3.37670E+0	-9.56316E-2	-2.07751E-1	-1.29084E-2
+3.39150E+0	-1.09746E-1	-1.97070E-1	-1.59957E-2
+3.40620E+0	-1.23743E-1	-1.87381E-1	-1.88794E-2
+3.42100E+0	-1.37810E-1	-1.84710E-1	-2.17311E-2
+3.43570E+0	-1.51755E-1	-2.02105E-1	-2.44482E-2
+3.45050E+0	-1.65764E-1	-1.93026E-1	-2.70945E-2
+3.46520E+0	-1.79646E-1	-1.82879E-1	-2.96441E-2
+3.48000E+0	-1.93586E-1	-1.61975E-1	-3.20493E-2
+3.49470E+0	-2.07393E-1	-1.43054E-1	-3.44215E-2
+3.50950E+0	-2.21252E-1	-1.34967E-1	-3.66411E-2
+3.52420E+0	-2.34974E-1	-1.39544E-1	-3.87894E-2
+3.53890E+0	-2.48649E-1	-1.58160E-1	-4.08671E-2
+3.55370E+0	-2.62367E-1	-1.50912E-1	-4.29121E-2
+3.56840E+0	-2.75940E-1	-1.39316E-1	-4.48759E-2
+3.58320E+0	-2.89551E-1	-1.14062E-1	-4.67092E-2
+3.59790E+0	-3.03011E-1	-9.75827E-2	-4.84771E-2
+3.61270E+0	-3.16502E-1	-8.36209E-2	-5.01203E-2
+3.62740E+0	-3.29839E-1	-9.23948E-2	-5.17134E-2
+3.64220E+0	-3.43201E-1	-1.16046E-1	-5.32580E-2
+3.65690E+0	-3.56404E-1	-1.28711E-1	-5.48112E-2
+3.67170E+0	-3.69625E-1	-1.13986E-1	-5.62776E-2
+3.68640E+0	-3.82683E-1	-8.69016E-2	-5.76382E-2
+3.70110E+0	-3.95666E-1	-9.11740E-2	-5.89156E-2
+3.71590E+0	-4.08657E-1	-7.77463E-2	-6.01920E-2
+3.73060E+0	-4.21479E-1	-7.04984E-2	-6.13842E-2
+3.74540E+0	-4.34303E-1	-6.50052E-2	-6.25110E-2
+3.76010E+0	-4.46955E-1	-5.63840E-2	-6.36014E-2
+3.77490E+0	-4.59602E-1	-6.76755E-2	-6.46404E-2
+3.78960E+0	-4.72073E-1	-5.27219E-2	-6.56282E-2
+3.80440E+0	-4.84534E-1	-6.87436E-2	-6.65621E-2
+3.81910E+0	-4.96814E-1	-4.98227E-2	-6.74683E-2
+3.83390E+0	-5.09078E-1	-6.28690E-2	-6.83323E-2
+3.84860E+0	-5.21157E-1	-4.92887E-2	-6.91533E-2
+3.86330E+0	-5.33133E-1	-4.92124E-2	-6.99272E-2
+3.87810E+0	-5.45084E-1	-4.64658E-2	-7.06777E-2
+3.89280E+0	-5.56845E-1	-3.74631E-2	-7.14015E-2
+3.90760E+0	-5.68574E-1	-3.75394E-2	-7.20766E-2
+3.92230E+0	-5.80111E-1	-3.13596E-2	-7.27261E-2
+3.93710E+0	-5.91610E-1	-3.07492E-2	-7.33549E-2
+3.95180E+0	-6.02914E-1	-3.70816E-2	-7.39582E-2
+3.96660E+0	-6.14173E-1	-4.83731E-2	-7.45331E-2
+3.98130E+0	-6.25234E-1	-5.89780E-2	-7.50419E-2
+3.99610E+0	-6.36244E-1	-4.89835E-2	-7.55245E-2
+4.01080E+0	-6.47054E-1	-2.07547E-2	-7.60251E-2
+4.02550E+0	-6.57734E-1	-1.07602E-2	-7.65210E-2
+4.04030E+0	-6.68356E-1	-2.80790E-2	-7.69966E-2
+4.05500E+0	-6.78773E-1	-3.80735E-2	-7.73976E-2
+4.06980E+0	-6.89124E-1	-2.38828E-2	-7.77934E-2
+4.08450E+0	-6.99268E-1	-1.83896E-2	-7.82109E-2
+4.09930E+0	-7.09340E-1	-3.33432E-2	-7.85834E-2
+4.11400E+0	-7.19204E-1	-2.09836E-2	-7.89359E-2
+4.12880E+0	-7.28990E-1	-1.88474E-2	-7.93016E-2
+4.14350E+0	-7.38564E-1	-2.84604E-2	-7.96327E-2
+4.15830E+0	-7.48056E-1	-1.80082E-2	-7.99664E-2
+4.17300E+0	-7.57334E-1	-1.99918E-2	-8.02639E-2
+4.18780E+0	-7.66524E-1	-1.82370E-2	-8.05674E-2
+4.20250E+0	-7.75498E-1	-2.46457E-2	-8.08500E-2
+4.21720E+0	-7.84319E-1	-1.86948E-2	-8.11281E-2
+4.23200E+0	-7.93042E-1	-1.57193E-2	-8.13841E-2
+4.24670E+0	-8.01548E-1	-1.36594E-2	-8.16449E-2
+4.26150E+0	-8.09951E-1	-1.20572E-2	-8.18895E-2
+4.27620E+0	-8.18136E-1	-2.20517E-2	-8.21258E-2
+4.29100E+0	-8.26213E-1	-1.79319E-2	-8.23546E-2
+4.30570E+0	-8.34070E-1	-9.69212E-3	-8.25756E-2
+4.32050E+0	-8.41814E-1	-1.39646E-2	-8.27765E-2
+4.33520E+0	-8.49337E-1	-9.53953E-3	-8.29855E-2
+4.35000E+0	-8.56741E-1	-1.66349E-2	-8.31814E-2
+4.36470E+0	-8.63925E-1	-1.09128E-2	-8.33665E-2
+4.37940E+0	-8.70936E-1	-4.35154E-3	-8.35317E-2
+4.39420E+0	-8.77821E-1	-1.50327E-2	-8.36974E-2
+4.40890E+0	-8.84484E-1	-1.29728E-2	-8.38747E-2
+4.42370E+0	-8.91015E-1	-9.61582E-3	-8.40302E-2
+4.43840E+0	-8.97325E-1	-9.99729E-3	-8.41835E-2
+4.45320E+0	-9.03497E-1	-6.94553E-3	-8.43247E-2
+4.46790E+0	-9.09447E-1	-9.92100E-3	-8.44717E-2
+4.48270E+0	-9.15256E-1	-3.81748E-3	-8.45991E-2
+4.49740E+0	-9.20842E-1	-1.38883E-2	-8.47309E-2
+4.51220E+0	-9.26283E-1	-1.22098E-2	-8.48450E-2
+4.52690E+0	-9.31501E-1	-6.64036E-3	-8.49761E-2
+4.54160E+0	-9.36535E-1	-3.51231E-3	-8.50837E-2
+4.55640E+0	-9.41415E-1	-9.38694E-3	-8.51943E-2
+4.57110E+0	-9.46074E-1	-1.04551E-2	-8.52933E-2
+4.58590E+0	-9.50575E-1	-1.24387E-2	-8.53880E-2
+4.60060E+0	-9.54857E-1	-4.60549E-4	-8.54899E-2
+4.61540E+0	-9.58976E-1	-3.35972E-3	-8.55787E-2
+4.63010E+0	-9.62876E-1	-1.44223E-2	-8.56655E-2
+4.64490E+0	-9.66609E-1	-7.55589E-3	-8.57452E-2
+4.65960E+0	-9.70124E-1	-3.13084E-3	-8.58167E-2
+4.67440E+0	-9.73469E-1	-9.08176E-3	-8.58936E-2
+4.68910E+0	-9.76597E-1	-8.54771E-3	-8.59595E-2
+4.70380E+0	-9.79531E-1	-1.23624E-2	-8.60285E-2
+4.71860E+0	-9.82289E-1	+3.88821E-3	-8.60864E-2
+4.73330E+0	-9.84832E-1	-1.91526E-2	-8.61555E-2
+4.74810E+0	-9.87195E-1	+1.21792E-3	-8.62188E-2
+4.76280E+0	-9.89345E-1	-8.31883E-3	-8.62538E-2
+4.77760E+0	-9.91311E-1	-4.35154E-3	-8.62959E-2
+4.79230E+0	-9.93066E-1	-1.08365E-2	-8.63336E-2
+4.80710E+0	-9.94634E-1	-1.15995E-2	-8.63780E-2
+4.82180E+0	-9.95993E-1	+2.20974E-3	-8.64081E-2
+4.83660E+0	-9.97162E-1	-6.94553E-3	-8.64468E-2
+4.85130E+0	-9.98124E-1	-1.68125E-3	-8.64685E-2
+4.86600E+0	-9.98888E-1	+5.31273E-4	-8.64911E-2
+4.88080E+0	-9.99456E-1	-3.35972E-3	-8.65186E-2
+4.89550E+0	-9.99822E-1	+5.31273E-4	-8.65262E-2
+4.91030E+0	-9.99989E-1	-6.25889E-3	-8.65512E-2
+4.92500E+0	-9.99956E-1	+2.05715E-3	-8.65633E-2
+4.93980E+0	-9.99722E-1	+1.29421E-3	-8.65698E-2
+4.95450E+0	-9.99290E-1	-3.13084E-3	-8.65803E-2
+4.96930E+0	-9.98655E-1	+2.97268E-3	-8.65857E-2
+4.98400E+0	-9.97825E-1	-3.13084E-3	-8.65934E-2
+4.99880E+0	-9.96790E-1	+7.35089E-5	-8.65944E-2
+5.01350E+0	-9.95562E-1	+5.71926E-3	-8.65981E-2
+5.02820E+0	-9.94137E-1	-1.39646E-2	-8.65954E-2
+5.04300E+0	-9.92503E-1	+1.90456E-3	-8.65995E-2
+5.05770E+0	-9.90682E-1	+1.29421E-3	-8.65959E-2
+5.07250E+0	-9.88650E-1	-2.82566E-3	-8.65965E-2
+5.08720E+0	-9.86434E-1	-7.09812E-3	-8.65838E-2
+5.10200E+0	-9.84006E-1	-8.47141E-3	-8.65854E-2
+5.11670E+0	-9.81398E-1	+2.06729E-2	-8.65753E-2
+5.13150E+0	-9.78575E-1	-2.37302E-2	-8.65526E-2
+5.14620E+0	-9.75576E-1	+7.70290E-3	-8.65375E-2
+5.16100E+0	-9.72361E-1	-8.47141E-3	-8.65324E-2
+5.17570E+0	-9.68974E-1	+4.95632E-3	-8.65168E-2
+5.19050E+0	-9.65369E-1	-8.42018E-4	-8.64991E-2
+5.20520E+0	-9.61597E-1	-1.45237E-3	-8.64774E-2
+5.21990E+0	-9.57633E-1	+3.27785E-3	-8.64557E-2
+5.23470E+0	-9.53451E-1	+4.65115E-3	-8.64301E-2
+5.24940E+0	-9.49106E-1	+2.97268E-3	-8.64014E-2
+5.26420E+0	-9.44542E-1	+3.73562E-3	-8.63728E-2
+5.27890E+0	-9.39820E-1	+2.05715E-3	-8.63383E-2
+5.29370E+0	-9.34878E-1	+6.10073E-3	-8.63058E-2
+5.30840E+0	-9.29782E-1	+8.08437E-3	-8.62583E-2
+5.32320E+0	-9.24465E-1	-2.06272E-3	-8.62208E-2
+5.33790E+0	-9.19000E-1	+3.50674E-3	-8.61759E-2
+5.35270E+0	-9.13314E-1	+6.25332E-3	-8.61289E-2
+5.36740E+0	-9.07484E-1	+3.78685E-4	-8.60775E-2
+5.38210E+0	-9.01473E-1	+4.11709E-3	-8.60245E-2
+5.39690E+0	-8.95241E-1	+3.43044E-3	-8.59684E-2
+5.41160E+0	-8.88873E-1	+8.61843E-3	-8.59052E-2
+5.42640E+0	-8.82283E-1	+7.47402E-3	-8.58385E-2
+5.44110E+0	-8.75561E-1	-1.07090E-3	-8.57687E-2
+5.45590E+0	-8.68618E-1	+7.70290E-3	-8.56984E-2
+5.47060E+0	-8.61549E-1	+8.99990E-3	-8.56212E-2
+5.48540E+0	-8.54259E-1	+5.71926E-3	-8.55375E-2
+5.50010E+0	-8.46848E-1	+7.93179E-3	-8.54527E-2
+5.51490E+0	-8.39217E-1	+2.05715E-3	-8.53599E-2
+5.52960E+0	-8.31470E-1	+9.91543E-3	-8.52623E-2
+5.54430E+0	-8.23557E-1	-7.90790E-5	-8.51568E-2
+5.55910E+0	-8.15426E-1	+1.19754E-2	-8.50503E-2
+5.57380E+0	-8.07187E-1	+9.07619E-3	-8.49411E-2
+5.58860E+0	-7.98730E-1	+5.10891E-3	-8.48118E-2
+5.60330E+0	-7.90171E-1	+1.02969E-2	-8.46857E-2
+5.61810E+0	-7.81396E-1	+1.36538E-2	-8.45504E-2
+5.63280E+0	-7.72524E-1	+1.11361E-2	-8.44131E-2
+5.64760E+0	-7.63436E-1	+1.12124E-2	-8.42673E-2
+5.66230E+0	-7.54258E-1	+1.31198E-2	-8.41149E-2
+5.67710E+0	-7.44866E-1	+1.35012E-2	-8.39475E-2
+5.69180E+0	-7.35389E-1	+1.37301E-2	-8.37748E-2
+5.70650E+0	-7.25766E-1	+1.14413E-2	-8.35934E-2
+5.72130E+0	-7.15932E-1	+1.27383E-2	-8.34102E-2
+5.73600E+0	-7.06021E-1	+9.91543E-3	-8.31951E-2
+5.75080E+0	-6.95902E-1	+1.99099E-2	-8.29922E-2
+5.76550E+0	-6.85712E-1	+1.68582E-2	-8.27686E-2
+5.78030E+0	-6.75315E-1	+1.06021E-2	-8.25371E-2
+5.79500E+0	-6.64854E-1	+1.99099E-2	-8.22872E-2
+5.80980E+0	-6.54189E-1	+2.14358E-2	-8.20349E-2
+5.82450E+0	-6.43465E-1	+1.44168E-2	-8.17556E-2
+5.83930E+0	-6.32539E-1	+1.28909E-2	-8.14504E-2
+5.85400E+0	-6.21560E-1	+2.41824E-2	-8.11499E-2
+5.86870E+0	-6.10459E-1	+3.68472E-2	-8.08339E-2
+5.88350E+0	-5.99159E-1	+3.12014E-2	-8.05060E-2
+5.89820E+0	-5.87816E-1	+2.29617E-2	-8.01460E-2
+5.91300E+0	-5.76278E-1	+1.31198E-2	-7.97685E-2
+5.92770E+0	-5.64704E-1	+1.31961E-2	-7.93619E-2
+5.94250E+0	-5.52937E-1	+2.42587E-2	-7.89295E-2
+5.95720E+0	-5.41139E-1	+3.73812E-2	-7.84786E-2
+5.97200E+0	-5.29153E-1	+5.21060E-2	-7.80150E-2
+5.98670E+0	-5.17142E-1	+5.94302E-2	-7.75373E-2
+6.00150E+0	-5.04946E-1	+5.87436E-2	-7.70178E-2
+6.01620E+0	-4.92731E-1	+5.35556E-2	-7.64591E-2
+6.03100E+0	-4.80335E-1	+4.79861E-2	-7.58624E-2
+6.04570E+0	-4.67926E-1	+4.80624E-2	-7.52385E-2
+6.06040E+0	-4.55425E-1	+6.21768E-2	-7.45691E-2
+6.07520E+0	-4.42747E-1	+5.34793E-2	-7.38524E-2
+6.08990E+0	-4.30067E-1	+6.43893E-2	-7.30943E-2
+6.10470E+0	-4.17214E-1	+5.69888E-2	-7.23062E-2
+6.11940E+0	-4.04365E-1	+6.03457E-2	-7.14417E-2
+6.13420E+0	-3.91347E-1	+6.27871E-2	-7.05442E-2
+6.14890E+0	-3.78339E-1	+6.41604E-2	-6.96034E-2
+6.16370E+0	-3.65167E-1	+7.57571E-2	-6.86087E-2
+6.17840E+0	-3.52011E-1	+7.70541E-2	-6.75435E-2
+6.19320E+0	-3.38695E-1	+8.07925E-2	-6.63910E-2
+6.20790E+0	-3.25401E-1	+7.45364E-2	-6.52276E-2
+6.22260E+0	-3.12043E-1	+7.58334E-2	-6.39774E-2
+6.23740E+0	-2.98531E-1	+8.10977E-2	-6.26591E-2
+6.25210E+0	-2.85051E-1	+9.52884E-2	-6.12913E-2
+6.26690E+0	-2.71422E-1	+1.16574E-1	-5.98065E-2
+6.28160E+0	-2.57831E-1	+1.21686E-1	-5.82448E-2
+6.29640E+0	-2.44096E-1	+1.32215E-1	-5.65585E-2
+6.31110E+0	-2.30405E-1	+1.44574E-1	-5.48135E-2
+6.32590E+0	-2.16575E-1	+1.46405E-1	-5.29282E-2
+6.34060E+0	-2.02795E-1	+1.29163E-1	-5.09833E-2
+6.35540E+0	-1.88880E-1	+1.06580E-1	-4.89661E-2
+6.37010E+0	-1.75022E-1	+1.17719E-1	-4.68832E-2
+6.38480E+0	-1.61129E-1	+1.20236E-1	-4.46786E-2
+6.39960E+0	-1.47110E-1	+1.43659E-1	-4.22891E-2
+6.41430E+0	-1.33156E-1	+1.63419E-1	-3.98196E-2
+6.42910E+0	-1.19080E-1	+1.89282E-1	-3.70502E-2
+6.44380E+0	-1.05075E-1	+1.98514E-1	-3.41707E-2
+6.45860E+0	-9.09542E-2	+1.93631E-1	-3.10961E-2
+6.47330E+0	-7.69106E-2	+2.21936E-1	-2.79269E-2
+6.48810E+0	-6.27561E-2	+2.19953E-1	-2.45915E-2
+6.50280E+0	-4.86846E-2	+2.34067E-1	-2.11073E-2
+6.51760E+0	-3.45077E-2	+2.52759E-1	-1.76124E-2
+6.53230E+0	-2.04197E-2	+2.48181E-1	-1.39933E-2
+6.54700E+0	-6.32763E-3	+2.42688E-1	-1.03783E-2
+6.56180E+0	+7.86157E-3	+2.12171E-1	-6.76695E-3
+6.57650E+0	+2.19533E-2	+2.42383E-1	-3.20146E-3
+6.59130E+0	+3.61366E-2	+2.36432E-1	+2.88768E-4
+6.60600E+0	+5.02167E-2	+2.36280E-1	+3.82459E-3
+6.62080E+0	+6.43826E-2	+2.41773E-1	+7.24388E-3
+6.63550E+0	+7.84400E-2	+2.26743E-1	+1.06381E-2
+6.65030E+0	+9.25772E-2	+2.23996E-1	+1.39328E-2
+6.66500E+0	+1.06600E-1	+2.02710E-1	+1.70686E-2
+6.67980E+0	+1.20698E-1	+1.97675E-1	+2.01315E-2
+6.69450E+0	+1.34676E-1	+1.96073E-1	+2.30716E-2
+6.70920E+0	+1.48627E-1	+2.13620E-1	+2.59784E-2
+6.72400E+0	+1.62643E-1	+2.03015E-1	+2.87098E-2
+6.73870E+0	+1.76532E-1	+1.85849E-1	+3.14195E-2
+6.75350E+0	+1.90481E-1	+1.72650E-1	+3.39998E-2
+6.76820E+0	+2.04297E-1	+1.53119E-1	+3.64230E-2
+6.78300E+0	+2.18166E-1	+1.44193E-1	+3.87712E-2
+6.79770E+0	+2.31898E-1	+1.48084E-1	+4.09823E-2
+6.81250E+0	+2.45676E-1	+1.65555E-1	+4.32142E-2
+6.82720E+0	+2.59313E-1	+1.67768E-1	+4.53032E-2
+6.84200E+0	+2.72990E-1	+1.46710E-1	+4.73727E-2
+6.85670E+0	+2.86521E-1	+1.21457E-1	+4.93032E-2
+6.87140E+0	+2.99995E-1	+9.74246E-2	+5.11173E-2
+6.88620E+0	+3.13500E-1	+9.62039E-2	+5.28295E-2
+6.90090E+0	+3.26851E-1	+1.04825E-1	+5.44877E-2
+6.91570E+0	+3.40228E-1	+1.23746E-1	+5.61489E-2
+6.93040E+0	+3.53446E-1	+1.23899E-1	+5.77353E-2
+6.94520E+0	+3.66684E-1	+1.10395E-1	+5.92665E-2
+6.95990E+0	+3.79759E-1	+9.60513E-2	+6.06721E-2
+6.97470E+0	+3.92846E-1	+9.23129E-2	+6.20544E-2
+6.98940E+0	+4.05767E-1	+8.59042E-2	+6.33162E-2
+7.00420E+0	+4.18695E-1	+7.72067E-2	+6.45529E-2
+7.01890E+0	+4.31451E-1	+6.67544E-2	+6.57018E-2
+7.03370E+0	+4.44208E-1	+6.22531E-2	+6.68304E-2
+7.04840E+0	+4.56790E-1	+5.98880E-2	+6.78610E-2
+7.06310E+0	+4.69282E-1	+5.82858E-2	+6.88956E-2
+7.07790E+0	+4.81764E-1	+5.50814E-2	+6.98423E-2
+7.09260E+0	+4.94066E-1	+4.82150E-2	+7.07781E-2
+7.10740E+0	+5.06352E-1	+5.22586E-2	+7.16268E-2
+7.12210E+0	+5.18454E-1	+4.35611E-2	+7.24722E-2
+7.13690E+0	+5.30535E-1	+4.66128E-2	+7.32568E-2
+7.15160E+0	+5.42429E-1	+3.65420E-2	+7.40187E-2
+7.16640E+0	+5.54294E-1	+3.88308E-2	+7.47460E-2
+7.18110E+0	+5.65969E-1	+3.33377E-2	+7.54357E-2
+7.19590E+0	+5.77610E-1	+3.71524E-2	+7.61006E-2
+7.21060E+0	+5.89057E-1	+4.43240E-2	+7.67299E-2
+7.22530E+0	+6.00386E-1	+4.98172E-2	+7.72964E-2
+7.24010E+0	+6.11673E-1	+5.53103E-2	+7.78504E-2
+7.25480E+0	+6.22761E-1	+3.86020E-2	+7.83587E-2
+7.26960E+0	+6.33800E-1	+2.09780E-2	+7.88819E-2
+7.28430E+0	+6.44638E-1	+1.12124E-2	+7.93902E-2
+7.29910E+0	+6.55420E-1	+2.90652E-2	+7.98726E-2
+7.31380E+0	+6.65999E-1	+5.21060E-2	+8.02998E-2
+7.32860E+0	+6.76516E-1	+3.99752E-2	+8.06983E-2
+7.34330E+0	+6.86828E-1	+1.53323E-2	+8.11204E-2
+7.35810E+0	+6.97071E-1	+2.47927E-2	+8.15156E-2
+7.37280E+0	+7.07107E-1	+3.12014E-2	+8.18674E-2
+7.38750E+0	+7.17002E-1	+1.74685E-2	+8.22192E-2
+7.40230E+0	+7.26820E-1	+2.36483E-2	+8.25645E-2
+7.41700E+0	+7.36428E-1	+1.88418E-2	+8.28724E-2
+7.43180E+0	+7.45952E-1	+2.05203E-2	+8.31937E-2
+7.44650E+0	+7.55264E-1	+2.23513E-2	+8.34774E-2
+7.46130E+0	+7.64488E-1	+1.28146E-2	+8.37657E-2
+7.47600E+0	+7.73497E-1	+1.77737E-2	+8.40277E-2
+7.49080E+0	+7.82412E-1	+1.59426E-2	+8.43078E-2
+7.50550E+0	+7.91111E-1	+1.27383E-2	+8.45357E-2
+7.52030E+0	+7.99710E-1	+1.59426E-2	+8.47717E-2
+7.53500E+0	+8.08092E-1	+9.53396E-3	+8.49904E-2
+7.54970E+0	+8.16313E-1	+1.53323E-2	+8.51962E-2
+7.56450E+0	+8.24427E-1	+1.02206E-2	+8.54120E-2
+7.57920E+0	+8.32321E-1	+1.22042E-2	+8.56053E-2
+7.59400E+0	+8.40102E-1	+1.09835E-2	+8.57886E-2
+7.60870E+0	+8.47663E-1	+1.60189E-2	+8.59684E-2
+7.62350E+0	+8.55105E-1	+1.15176E-2	+8.61513E-2
+7.63820E+0	+8.62327E-1	+1.07547E-2	+8.63069E-2
+7.65300E+0	+8.69425E-1	+1.04495E-2	+8.64719E-2
+7.66770E+0	+8.76301E-1	+3.04897E-3	+8.66151E-2
+7.68250E+0	+8.83049E-1	+1.24331E-2	+8.67572E-2
+7.69720E+0	+8.89574E-1	+1.41116E-2	+8.68940E-2
+7.71190E+0	+8.95924E-1	+1.07547E-2	+8.70259E-2
+7.72670E+0	+9.02136E-1	+9.22878E-3	+8.71538E-2
+7.74140E+0	+9.08127E-1	+7.85549E-3	+8.72715E-2
+7.75620E+0	+9.13976E-1	+1.34249E-2	+8.73827E-2
+7.77090E+0	+9.19604E-1	+1.01443E-2	+8.74889E-2
+7.78570E+0	+9.25086E-1	-7.65724E-4	+8.75891E-2
+7.80040E+0	+9.30346E-1	+6.71108E-3	+8.76986E-2
+7.81520E+0	+9.35455E-1	+7.32143E-3	+8.77843E-2
+7.82990E+0	+9.40343E-1	+3.02391E-4	+8.78763E-2
+7.84470E+0	+9.45076E-1	+3.88821E-3	+8.79509E-2
+7.85940E+0	+9.49588E-1	+3.58303E-3	+8.80256E-2
+7.87420E+0	+9.53941E-1	+1.98086E-3	+8.81118E-2
+7.88890E+0	+9.58074E-1	+1.75198E-3	+8.81809E-2
+7.90360E+0	+9.62017E-1	+1.29672E-2	+8.82396E-2
+7.91840E+0	+9.65793E-1	+3.73562E-3	+8.83027E-2
+7.93310E+0	+9.69352E-1	+7.35089E-5	+8.83581E-2
+7.94790E+0	+9.72740E-1	+8.16067E-3	+8.84167E-2
+7.96260E+0	+9.75912E-1	+5.87185E-3	+8.84696E-2
+7.97740E+0	+9.78909E-1	+7.09255E-3	+8.85148E-2
+7.99210E+0	+9.81691E-1	+8.16067E-3	+8.85443E-2
+8.00690E+0	+9.84295E-1	-2.82566E-3	+8.85981E-2
+8.02160E+0	+9.86685E-1	-9.38694E-3	+8.86199E-2
+8.03640E+0	+9.88893E-1	-3.43601E-3	+8.86492E-2
+8.05110E+0	+9.90890E-1	+9.45766E-3	+8.86801E-2
+8.06580E+0	+9.92689E-1	-3.43601E-3	+8.86920E-2
+8.08060E+0	+9.94302E-1	+3.43044E-3	+8.87105E-2
+8.09530E+0	+9.95706E-1	+7.35089E-5	+8.87266E-2
+8.11010E+0	+9.96919E-1	+8.77102E-3	+8.87534E-2
+8.12480E+0	+9.97925E-1	+5.31273E-4	+8.87451E-2
+8.13960E+0	+9.98738E-1	-4.12266E-3	+8.87486E-2
+8.15430E+0	+9.99347E-1	-9.94606E-4	+8.87541E-2
+8.16910E+0	+9.99759E-1	+1.06533E-3	+8.87422E-2
+8.18380E+0	+9.99969E-1	-6.89431E-4	+8.87534E-2
+8.19860E+0	+9.99980E-1	-4.60549E-4	+8.87398E-2
+8.21330E+0	+9.99791E-1	-1.75755E-3	+8.87215E-2
+8.22800E+0	+9.99404E-1	+6.07567E-4	+8.87176E-2
+8.24280E+0	+9.98814E-1	-5.57224E-3	+8.86971E-2
+8.25750E+0	+9.98029E-1	-5.64854E-3	+8.86890E-2
+8.27230E+0	+9.97038E-1	+5.64297E-3	+8.86686E-2
+8.28700E+0	+9.95855E-1	-3.20713E-3	+8.86476E-2
+8.30180E+0	+9.94464E-1	+2.97268E-3	+8.86417E-2
+8.31650E+0	+9.92885E-1	-1.75755E-3	+8.86100E-2
+8.33130E+0	+9.91095E-1	-1.45237E-3	+8.85930E-2
+8.34600E+0	+9.89120E-1	-2.36790E-3	+8.85673E-2
+8.36080E+0	+9.86933E-1	-7.47959E-3	+8.85463E-2
+8.37550E+0	+9.84564E-1	-9.00547E-3	+8.85174E-2
+8.39020E+0	+9.82000E-1	-9.53953E-3	+8.84756E-2
+8.40500E+0	+9.79221E-1	+1.15176E-2	+8.84689E-2
+8.41970E+0	+9.76266E-1	+4.65115E-3	+8.84158E-2
+8.43450E+0	+9.73095E-1	+4.72744E-3	+8.83923E-2
+8.44920E+0	+9.69751E-1	-4.50413E-3	+8.83543E-2
+8.46400E+0	+9.66190E-1	+3.78685E-4	+8.83156E-2
+8.47870E+0	+9.62460E-1	-6.13137E-4	+8.82702E-2
+8.49350E+0	+9.58512E-1	-2.82566E-3	+8.82264E-2
+8.50820E+0	+9.54400E-1	-3.89378E-3	+8.81851E-2
+8.52300E+0	+9.50068E-1	-1.60496E-3	+8.81351E-2
+8.53770E+0	+9.45576E-1	+1.75198E-3	+8.80824E-2
+8.55240E+0	+9.40896E-1	+1.90456E-3	+8.80297E-2
+8.56720E+0	+9.35996E-1	-1.68125E-3	+8.79749E-2
+8.58190E+0	+9.30942E-1	-6.33518E-3	+8.79180E-2
+8.59670E+0	+9.25667E-1	-5.41966E-3	+8.78513E-2
+8.61140E+0	+9.20243E-1	-4.96189E-3	+8.77889E-2
+8.62620E+0	+9.14598E-1	-6.94553E-3	+8.77156E-2
+8.64090E+0	+9.08808E-1	-6.10630E-3	+8.76485E-2
+8.65570E+0	+9.02797E-1	-7.78477E-3	+8.75770E-2
+8.67040E+0	+8.96646E-1	-7.55589E-3	+8.74973E-2
+8.68520E+0	+8.90274E-1	-8.47141E-3	+8.74153E-2
+8.69990E+0	+8.83767E-1	-9.69212E-3	+8.73320E-2
+8.71460E+0	+8.77085E-1	-1.04551E-2	+8.72391E-2
+8.72940E+0	+8.70181E-1	-2.06272E-3	+8.71444E-2
+8.74410E+0	+8.63151E-1	-4.42783E-3	+8.70454E-2
+8.75890E+0	+8.55900E-1	-1.01499E-2	+8.69471E-2
+8.77360E+0	+8.48526E-1	-8.16624E-3	+8.68358E-2
+8.78840E+0	+8.40933E-1	-1.38883E-2	+8.67263E-2
+8.80310E+0	+8.33223E-1	-9.61582E-3	+8.66085E-2
+8.81790E+0	+8.25294E-1	-1.18283E-2	+8.64913E-2
+8.83260E+0	+8.17253E-1	-3.13084E-3	+8.63574E-2
+8.84740E+0	+8.08994E-1	-1.10654E-2	+8.62182E-2
+8.86210E+0	+8.00630E-1	-1.40409E-2	+8.60874E-2
+8.87690E+0	+7.92048E-1	-6.94553E-3	+8.59385E-2
+8.89160E+0	+7.83366E-1	-5.26707E-3	+8.57820E-2
+8.90630E+0	+7.74529E-1	-1.48038E-2	+8.56229E-2
+8.92110E+0	+7.65476E-1	-1.04551E-2	+8.54532E-2
+8.93580E+0	+7.56331E-1	-1.43460E-2	+8.52809E-2
+8.95060E+0	+7.46973E-1	-1.20572E-2	+8.50920E-2
+8.96530E+0	+7.37529E-1	-1.21335E-2	+8.49024E-2
+8.98010E+0	+7.27873E-1	-1.21335E-2	+8.47052E-2
+8.99480E+0	+7.18137E-1	-1.65586E-2	+8.44814E-2
+9.00960E+0	+7.08191E-1	-1.41172E-2	+8.42732E-2
+9.02430E+0	+6.98170E-1	-1.80082E-2	+8.40338E-2
+9.03910E+0	+6.87942E-1	-1.48038E-2	+8.37883E-2
+9.05380E+0	+6.77645E-1	-2.11362E-2	+8.35454E-2
+9.06850E+0	+6.67214E-1	-1.12180E-2	+8.32673E-2
+9.08330E+0	+6.56578E-1	-1.94577E-2	+8.29847E-2
+9.09800E+0	+6.45883E-1	-2.51035E-2	+8.26988E-2
+9.11280E+0	+6.34986E-1	-2.60190E-2	+8.24008E-2
+9.12750E+0	+6.24036E-1	-1.51090E-2	+8.20697E-2
+9.14230E+0	+6.12886E-1	-1.61771E-2	+8.17240E-2
+9.15700E+0	+6.01689E-1	-2.44931E-2	+8.13531E-2
+9.17180E+0	+5.90295E-1	-3.31907E-2	+8.09891E-2
+9.18650E+0	+5.78861E-1	-3.95230E-2	+8.06069E-2
+9.20130E+0	+5.67233E-1	-3.21225E-2	+8.01949E-2
+9.21600E+0	+5.55570E-1	-1.93814E-2	+7.97579E-2
+9.23070E+0	+5.43797E-1	-8.47141E-3	+7.92823E-2
+9.24550E+0	+5.31835E-1	-6.86924E-3	+7.87711E-2
+9.26020E+0	+5.19847E-1	-1.87711E-2	+7.82390E-2
+9.27500E+0	+5.07674E-1	-3.26566E-2	+7.76875E-2
+9.28970E+0	+4.95482E-1	-3.89890E-2	+7.71303E-2
+9.30450E+0	+4.83107E-1	-4.33377E-2	+7.65317E-2
+9.31920E+0	+4.70720E-1	-4.16593E-2	+7.58800E-2
+9.33400E+0	+4.58154E-1	-4.17356E-2	+7.51969E-2
+9.34870E+0	+4.45582E-1	-4.86783E-2	+7.44877E-2
+9.36350E+0	+4.32835E-1	-3.97519E-2	+7.37217E-2
+9.37820E+0	+4.20087E-1	-5.18827E-2	+7.29209E-2
+9.39290E+0	+4.07256E-1	-4.98990E-2	+7.20761E-2
+9.40770E+0	+3.94256E-1	-6.05039E-2	+7.11771E-2
+9.42240E+0	+3.81266E-1	-6.76755E-2	+7.02239E-2
+9.43720E+0	+3.68110E-1	-7.43894E-2	+6.91945E-2
+9.45190E+0	+3.54970E-1	-7.10324E-2	+6.81221E-2
+9.46670E+0	+3.41670E-1	-7.61441E-2	+6.69925E-2
+9.48140E+0	+3.28391E-1	-8.23240E-2	+6.57975E-2
+9.49620E+0	+3.14956E-1	-1.00329E-1	+6.45270E-2
+9.51090E+0	+3.01549E-1	-1.05594E-1	+6.31761E-2
+9.52570E+0	+2.87990E-1	-1.02694E-1	+6.17794E-2
+9.54040E+0	+2.74466E-1	-9.89560E-2	+6.02954E-2
+9.55510E+0	+2.60887E-1	-9.83457E-2	+5.87353E-2
+9.56990E+0	+2.47163E-1	-9.81931E-2	+5.71288E-2
+9.58460E+0	+2.33483E-1	-9.88034E-2	+5.54129E-2
+9.59940E+0	+2.19662E-1	-1.07654E-1	+5.36411E-2
+9.61410E+0	+2.05892E-1	-1.26956E-1	+5.17574E-2
+9.62890E+0	+1.91986E-1	-1.63043E-1	+4.97666E-2
+9.64360E+0	+1.78136E-1	-1.75631E-1	+4.76082E-2
+9.65840E+0	+1.64157E-1	-1.86236E-1	+4.53040E-2
+9.67310E+0	+1.50238E-1	-1.83566E-1	+4.29523E-2
+9.68790E+0	+1.36196E-1	-1.74716E-1	+4.03883E-2
+9.70260E+0	+1.22220E-1	-1.75708E-1	+3.77695E-2
+9.71740E+0	+1.08126E-1	-1.84100E-1	+3.49740E-2
+9.73210E+0	+9.41045E-2	-2.11718E-1	+3.20767E-2
+9.74680E+0	+8.00647E-2	-2.17975E-1	+2.89012E-2
+9.76160E+0	+6.59134E-2	-2.31784E-1	+2.55702E-2
+9.77630E+0	+5.18445E-2	-2.34836E-1	+2.22084E-2
+9.79110E+0	+3.76695E-2	-2.34454E-1	+1.87208E-2
+9.80580E+0	+2.35828E-2	-2.25604E-1	+1.53287E-2
+9.82060E+0	+9.39549E-3	-2.27893E-1	+1.18181E-2
+9.83530E+0	-4.69780E-3	-2.44372E-1	+8.36051E-3
+9.85010E+0	-1.88860E-2	-2.41168E-1	+4.82107E-3
+9.86480E+0	-3.29746E-2	-2.43457E-1	+1.32306E-3
+9.87960E+0	-4.71524E-2	-2.26901E-1	-2.09270E-3
+9.89430E+0	-6.12250E-2	-2.15838E-1	-5.46315E-3
+9.90900E+0	-7.52855E-2	-2.08285E-1	-8.63965E-3
+9.92380E+0	-8.94265E-2	-2.04242E-1	-1.18144E-2
+9.93850E+0	-1.03454E-1	-2.12176E-1	-1.48438E-2
+9.95330E+0	-1.17556E-1	-2.01648E-1	-1.78746E-2
+9.96800E+0	-1.31540E-1	-1.99740E-1	-2.08071E-2
+9.98280E+0	-1.45592E-1	-1.72122E-1	-2.35406E-2
+9.99750E+0	-1.59521E-1	-1.44580E-1	-2.62444E-2
+1.00123E+1	-1.73512E-1	-1.51904E-1	-2.87788E-2
+1.00270E+1	-1.87374E-1	-1.56711E-1	-3.12461E-2
+1.00418E+1	-2.01292E-1	-1.74258E-1	-3.36319E-2
+1.00565E+1	-2.15077E-1	-1.62967E-1	-3.59596E-2
+1.00712E+1	-2.28819E-1	-1.55185E-1	-3.82072E-2
+1.00860E+1	-2.42608E-1	-1.32831E-1	-4.03094E-2
+1.01007E+1	-2.56256E-1	-1.08874E-1	-4.23445E-2
+1.01155E+1	-2.69945E-1	-1.08111E-1	-4.42468E-2
+1.01302E+1	-2.83488E-1	-1.24743E-1	-4.61051E-2
+1.01450E+1	-2.97066E-1	-1.52362E-1	-4.79188E-2
+1.01597E+1	-3.10494E-1	-1.44656E-1	-4.97226E-2
+1.01745E+1	-3.23950E-1	-1.17267E-1	-5.14358E-2
+1.01892E+1	-3.37251E-1	-8.61386E-2	-5.29917E-2
+1.02040E+1	-3.50575E-1	-7.37027E-2	-5.45016E-2
+1.02187E+1	-3.63738E-1	-8.33921E-2	-5.58985E-2
+1.02334E+1	-3.76830E-1	-9.20133E-2	-5.72882E-2
+1.02482E+1	-3.89935E-1	-9.69724E-2	-5.86244E-2
+1.02629E+1	-4.02873E-1	-8.46891E-2	-5.99312E-2
+1.02777E+1	-4.15819E-1	-7.91196E-2	-6.11436E-2
+1.02924E+1	-4.28595E-1	-8.46891E-2	-6.23187E-2
+1.03072E+1	-4.41371E-1	-7.82804E-2	-6.34306E-2
+1.03219E+1	-4.53973E-1	-7.25583E-2	-6.45102E-2
+1.03367E+1	-4.66570E-1	-7.95774E-2	-6.55080E-2
+1.03514E+1	-4.78989E-1	-6.35556E-2	-6.64866E-2
+1.03662E+1	-4.91396E-1	-7.78989E-2	-6.73864E-2
+1.03809E+1	-5.03621E-1	-6.42423E-2	-6.82860E-2
+1.03956E+1	-5.15746E-1	-7.28635E-2	-6.91138E-2
+1.04104E+1	-5.27851E-1	-5.92069E-2	-6.99218E-2
+1.04251E+1	-5.39768E-1	-6.49289E-2	-7.06701E-2
+1.04399E+1	-5.51658E-1	-4.89835E-2	-7.13955E-2
+1.04546E+1	-5.63358E-1	-4.80680E-2	-7.20884E-2
+1.04694E+1	-5.75024E-1	-3.58609E-2	-7.27460E-2
+1.04841E+1	-5.86497E-1	-3.06730E-2	-7.33697E-2
+1.04989E+1	-5.97930E-1	-3.08255E-2	-7.39982E-2
+1.05136E+1	-6.09167E-1	-2.98337E-2	-7.45807E-2
+1.05284E+1	-6.20358E-1	-4.85257E-2	-7.51518E-2
+1.05431E+1	-6.31350E-1	-5.48581E-2	-7.56422E-2
+1.05578E+1	-6.42216E-1	-4.24985E-2	-7.61220E-2
+1.05726E+1	-6.53028E-1	-1.73215E-2	-7.66102E-2
+1.05873E+1	-6.63636E-1	-6.41148E-3	-7.71034E-2
+1.06021E+1	-6.74183E-1	-2.72397E-2	-7.75565E-2
+1.06168E+1	-6.84525E-1	-3.86838E-2	-7.79354E-2
+1.06316E+1	-6.94799E-1	-2.26621E-2	-7.83354E-2
+1.06463E+1	-7.04866E-1	-2.27384E-2	-7.87393E-2
+1.06611E+1	-7.14860E-1	-3.46402E-2	-7.91090E-2
+1.06758E+1	-7.24644E-1	-1.79319E-2	-7.94594E-2
+1.06906E+1	-7.34349E-1	-2.90708E-2	-7.98080E-2
+1.07053E+1	-7.43842E-1	-2.01444E-2	-8.01251E-2
+1.07201E+1	-7.53250E-1	-1.65586E-2	-8.04457E-2
+1.07348E+1	-7.62444E-1	-2.22806E-2	-8.07352E-2
+1.07495E+1	-7.71488E-1	-2.36539E-2	-8.10315E-2
+1.07643E+1	-7.80438E-1	-2.01444E-2	-8.12967E-2
+1.07790E+1	-7.89172E-1	-1.56430E-2	-8.15715E-2
+1.07938E+1	-7.97806E-1	-1.27439E-2	-8.18199E-2
+1.08085E+1	-8.06224E-1	-2.47983E-2	-8.20702E-2
+1.08233E+1	-8.14537E-1	-1.82370E-2	-8.23155E-2
+1.08380E+1	-8.22632E-1	-1.27439E-2	-8.25341E-2
+1.08528E+1	-8.30616E-1	-1.43460E-2	-8.27519E-2
+1.08675E+1	-8.38382E-1	-1.86948E-2	-8.29690E-2
+1.08823E+1	-8.46031E-1	-9.61582E-3	-8.31777E-2
+1.08970E+1	-8.53461E-1	-1.34305E-2	-8.33547E-2
+1.09117E+1	-8.60721E-1	-1.48801E-2	-8.35536E-2
+1.09265E+1	-8.67857E-1	-9.31065E-3	-8.37272E-2
+1.09412E+1	-8.74773E-1	-1.22098E-2	-8.38987E-2
+1.09560E+1	-8.81559E-1	-8.92918E-3	-8.40735E-2
+1.09707E+1	-8.88125E-1	-9.76841E-3	-8.42269E-2
+1.09855E+1	-8.94557E-1	-8.62400E-3	-8.43812E-2
+1.10002E+1	-9.00767E-1	-7.02183E-3	-8.45254E-2
+1.10150E+1	-9.06838E-1	-1.18283E-2	-8.46678E-2
+1.10297E+1	-9.12688E-1	-8.01365E-3	-8.48066E-2
+1.10445E+1	-9.18395E-1	-7.70847E-3	-8.49322E-2
+1.10592E+1	-9.23880E-1	-1.09891E-2	-8.50593E-2
+1.10739E+1	-9.29181E-1	-1.37357E-2	-8.51793E-2
+1.10887E+1	-9.34332E-1	-8.16624E-3	-8.52896E-2
+1.11034E+1	-9.39262E-1	-7.25071E-3	-8.54023E-2
+1.11182E+1	-9.44037E-1	-1.60496E-3	-8.55019E-2
+1.11329E+1	-9.48592E-1	-1.91013E-3	-8.56076E-2
+1.11477E+1	-9.52987E-1	-8.62400E-3	-8.57000E-2
+1.11624E+1	-9.57163E-1	-9.94606E-4	-8.57965E-2
+1.11772E+1	-9.61175E-1	-1.13706E-2	-8.58763E-2
+1.11919E+1	-9.64968E-1	-4.80930E-3	-8.59562E-2
+1.12067E+1	-9.68594E-1	-3.13084E-3	-8.60309E-2
+1.12214E+1	-9.72002E-1	-1.03788E-2	-8.61115E-2
+1.12361E+1	-9.75217E-1	-3.43601E-3	-8.61808E-2
+1.12509E+1	-9.78258E-1	-6.48777E-3	-8.62507E-2
+1.12656E+1	-9.81083E-1	-1.44986E-2	-8.63092E-2
+1.12804E+1	-9.83731E-1	+5.33779E-3	-8.63686E-2
+1.12951E+1	-9.86165E-1	-1.18283E-2	-8.64265E-2
+1.13099E+1	-9.88418E-1	-9.15806E-3	-8.64797E-2
+1.13246E+1	-9.90459E-1	+3.20156E-3	-8.65254E-2
+1.13394E+1	-9.92314E-1	-7.32700E-3	-8.65666E-2
+1.13541E+1	-9.93960E-1	-2.90195E-3	-8.66106E-2
+1.13689E+1	-9.95417E-1	-9.53953E-3	-8.66444E-2
+1.13836E+1	-9.96666E-1	+3.43044E-3	-8.66780E-2
+1.13983E+1	-9.97717E-1	+3.78685E-4	-8.67120E-2
+1.14131E+1	-9.98574E-1	-1.37608E-3	-8.67304E-2
+1.14278E+1	-9.99228E-1	+2.28603E-3	-8.67568E-2
+1.14426E+1	-9.99685E-1	-3.66489E-3	-8.67704E-2
+1.14573E+1	-9.99939E-1	+3.20156E-3	-8.67929E-2
+1.14721E+1	-9.99995E-1	-2.67307E-3	-8.68027E-2
+1.14868E+1	-9.99851E-1	+3.78685E-4	-8.68134E-2
+1.15016E+1	-9.99506E-1	+1.14162E-3	-8.68203E-2
+1.15163E+1	-9.98963E-1	-4.73301E-3	-8.68187E-2
+1.15311E+1	-9.98217E-1	+6.48220E-3	-8.68338E-2
+1.15458E+1	-9.97276E-1	-7.86106E-3	-8.68395E-2
+1.15606E+1	-9.96129E-1	-6.13137E-4	-8.68429E-2
+1.15753E+1	-9.94792E-1	+5.87185E-3	-8.68468E-2
+1.15900E+1	-9.93256E-1	-8.16624E-3	-8.68446E-2
+1.16048E+1	-9.91511E-1	+4.19338E-3	-8.68449E-2
+1.16195E+1	-9.89581E-1	-4.50413E-3	-8.68337E-2
+1.16343E+1	-9.87438E-1	+3.58303E-3	-8.68295E-2
+1.16490E+1	-9.85113E-1	+4.65115E-3	-8.68209E-2
+1.16638E+1	-9.82575E-1	-1.74741E-2	-8.68137E-2
+1.16785E+1	-9.79858E-1	+1.77737E-2	-8.68195E-2
+1.16933E+1	-9.76926E-1	-2.30436E-2	-8.67908E-2
+1.17080E+1	-9.73819E-1	+1.44680E-3	-8.67846E-2
+1.17228E+1	-9.70495E-1	+1.90456E-3	-8.67685E-2
+1.17375E+1	-9.67001E-1	-7.65724E-4	-8.67520E-2
+1.17522E+1	-9.63314E-1	+3.78685E-4	-8.67276E-2
+1.17670E+1	-9.59409E-1	-5.36843E-4	-8.67072E-2
+1.17817E+1	-9.55340E-1	-2.13902E-3	-8.66852E-2
+1.17965E+1	-9.51051E-1	-6.89431E-4	-8.66567E-2
+1.18112E+1	-9.46601E-1	+5.31273E-4	-8.66229E-2
+1.18260E+1	-9.41931E-1	-6.13137E-4	-8.65919E-2
+1.18407E+1	-9.37105E-1	-1.91013E-3	-8.65593E-2
+1.18555E+1	-9.32058E-1	-2.36790E-3	-8.65256E-2
+1.18702E+1	-9.26859E-1	+4.65115E-3	-8.64821E-2
+1.18850E+1	-9.21440E-1	-1.55373E-4	-8.64384E-2
+1.18997E+1	-9.15873E-1	+2.20974E-3	-8.63938E-2
+1.19144E+1	-9.10124E-1	+5.33779E-3	-8.63460E-2
+1.19292E+1	-9.04153E-1	+3.35415E-3	-8.62938E-2
+1.19439E+1	-8.98043E-1	+9.12742E-4	-8.62366E-2
+1.19587E+1	-8.91711E-1	+3.12527E-3	-8.61763E-2
+1.19734E+1	-8.85243E-1	+2.13345E-3	-8.61119E-2
+1.19882E+1	-8.78555E-1	+5.71926E-3	-8.60419E-2
+1.20029E+1	-8.71736E-1	+8.00808E-3	-8.59727E-2
+1.20177E+1	-8.64696E-1	+8.36448E-4	-8.58992E-2
+1.20324E+1	-8.57531E-1	+1.37051E-3	-8.58193E-2
+1.20472E+1	-8.50146E-1	+2.97268E-3	-8.57357E-2
+1.20619E+1	-8.42641E-1	+5.31273E-4	-8.56406E-2
+1.20766E+1	-8.34968E-1	+6.17702E-3	-8.55466E-2
+1.20914E+1	-8.27076E-1	+8.31325E-3	-8.54427E-2
+1.21061E+1	-8.19073E-1	+1.19754E-2	-8.53452E-2
+1.21209E+1	-8.10850E-1	+3.73562E-3	-8.52313E-2
+1.21356E+1	-8.02522E-1	+7.55032E-3	-8.51077E-2
+1.21504E+1	-7.93975E-1	+1.70108E-2	-8.49861E-2
+1.21651E+1	-7.85329E-1	+7.62661E-3	-8.48585E-2
+1.21799E+1	-7.76466E-1	+8.46584E-3	-8.47160E-2
+1.21946E+1	-7.67508E-1	+8.99990E-3	-8.45752E-2
+1.22094E+1	-7.58335E-1	+1.02206E-2	-8.44287E-2
+1.22241E+1	-7.49073E-1	+1.47219E-2	-8.42640E-2
+1.22388E+1	-7.39662E-1	+8.16067E-3	-8.41003E-2
+1.22536E+1	-7.30039E-1	+8.46584E-3	-8.39149E-2
+1.22683E+1	-7.20335E-1	+1.72396E-2	-8.37355E-2
+1.22831E+1	-7.10421E-1	+1.31961E-2	-8.35360E-2
+1.22978E+1	-7.00432E-1	+8.16067E-3	-8.33325E-2
+1.23126E+1	-6.90235E-1	+2.38772E-2	-8.31101E-2
+1.23273E+1	-6.79969E-1	+1.21280E-2	-8.28834E-2
+1.23421E+1	-6.69496E-1	+1.61715E-2	-8.26358E-2
+1.23568E+1	-6.58961E-1	+2.21988E-2	-8.23838E-2
+1.23716E+1	-6.48222E-1	+2.34958E-2	-8.21237E-2
+1.23863E+1	-6.37427E-1	+1.57901E-2	-8.18423E-2
+1.24010E+1	-6.26505E-1	+1.27383E-2	-8.15396E-2
+1.24158E+1	-6.15383E-1	+2.24276E-2	-8.12161E-2
+1.24305E+1	-6.04213E-1	+3.32614E-2	-8.08914E-2
+1.24453E+1	-5.92846E-1	+3.25747E-2	-8.05496E-2
+1.24600E+1	-5.81438E-1	+2.05203E-2	-8.01862E-2
+1.24748E+1	-5.69836E-1	+1.12887E-2	-7.98012E-2
+1.24895E+1	-5.58198E-1	+4.04079E-3	-7.93739E-2
+1.25043E+1	-5.46369E-1	+1.57138E-2	-7.89277E-2
+1.25190E+1	-5.34512E-1	+3.32614E-2	-7.84462E-2
+1.25338E+1	-5.22466E-1	+4.61551E-2	-7.79712E-2
+1.25485E+1	-5.10397E-1	+5.99643E-2	-7.74703E-2
+1.25633E+1	-4.98145E-1	+5.95828E-2	-7.69384E-2
+1.25780E+1	-4.85875E-1	+5.05801E-2	-7.63521E-2
+1.25927E+1	-4.73509E-1	+5.31741E-2	-7.57551E-2
+1.26075E+1	-4.60964E-1	+5.03512E-2	-7.50931E-2
+1.26222E+1	-4.48412E-1	+4.92068E-2	-7.44177E-2
+1.26370E+1	-4.35684E-1	+4.70706E-2	-7.36593E-2
+1.26517E+1	-4.22956E-1	+4.92068E-2	-7.29128E-2
+1.26665E+1	-4.10056E-1	+3.91360E-2	-7.20775E-2
+1.26812E+1	-3.97162E-1	+5.95828E-2	-7.12124E-2
+1.26960E+1	-3.84100E-1	+5.30978E-2	-7.02904E-2
+1.27107E+1	-3.71050E-1	+6.81277E-2	-6.93300E-2
+1.27255E+1	-3.57837E-1	+7.93429E-2	-6.82950E-2
+1.27402E+1	-3.44641E-1	+8.55227E-2	-6.71809E-2
+1.27549E+1	-3.31378E-1	+8.07925E-2	-6.60353E-2
+1.27697E+1	-3.17957E-1	+9.25418E-2	-6.48010E-2
+1.27844E+1	-3.04564E-1	+9.42202E-2	-6.35025E-2
+1.27992E+1	-2.91019E-1	+9.89505E-2	-6.21031E-2
+1.28139E+1	-2.77507E-1	+9.62039E-2	-6.06809E-2
+1.28287E+1	-2.63847E-1	+8.76590E-2	-5.91517E-2
+1.28434E+1	-2.50227E-1	+9.23892E-2	-5.75850E-2
+1.28582E+1	-2.36465E-1	+9.62802E-2	-5.59015E-2
+1.28729E+1	-2.22748E-1	+1.16803E-1	-5.41459E-2
+1.28877E+1	-2.08893E-1	+1.31681E-1	-5.22650E-2
+1.29024E+1	-1.95090E-1	+1.57392E-1	-5.02471E-2
+1.29171E+1	-1.81249E-1	+1.75092E-1	-4.81727E-2
+1.29319E+1	-1.67277E-1	+1.86688E-1	-4.59043E-2
+1.29466E+1	-1.53366E-1	+1.79593E-1	-4.35679E-2
+1.29614E+1	-1.39329E-1	+1.67462E-1	-4.10601E-2
+1.29761E+1	-1.25360E-1	+1.84400E-1	-3.84783E-2
+1.29909E+1	-1.11270E-1	+1.82263E-1	-3.57212E-2
+1.30056E+1	-9.72538E-2	+2.11484E-1	-3.27555E-2
+1.30204E+1	-8.31224E-2	+2.37500E-1	-2.96989E-2
+1.30351E+1	-6.90700E-2	+2.38721E-1	-2.63906E-2
+1.30499E+1	-5.49081E-2	+2.46656E-1	-2.29223E-2
+1.30646E+1	-4.08309E-2	+2.24988E-1	-1.93932E-2
+1.30793E+1	-2.67456E-2	+2.37195E-1	-1.58434E-2
+1.30941E+1	-1.25591E-2	+2.39102E-1	-1.22583E-2
+1.31088E+1	+1.53398E-3	+2.63288E-1	-8.61248E-3
+1.31236E+1	+1.57227E-2	+2.60541E-1	-5.12711E-3
+1.31383E+1	+2.98123E-2	+2.38950E-1	-1.52155E-3
+1.31531E+1	+4.39919E-2	+2.43756E-1	+2.05855E-3
+1.31678E+1	+5.80668E-2	+2.20716E-1	+5.52088E-3
+1.31826E+1	+7.22259E-2	+2.15985E-1	+8.94911E-3
+1.31973E+1	+8.62749E-2	+2.22699E-1	+1.21987E-2
+1.32121E+1	+1.00402E-1	+2.22013E-1	+1.54839E-2
+1.32268E+1	+1.14414E-1	+2.16596E-1	+1.85467E-2
+1.32415E+1	+1.28403E-1	+2.01642E-1	+2.15881E-2
+1.32563E+1	+1.42461E-1	+1.91876E-1	+2.45105E-2
+1.32710E+1	+1.56397E-1	+1.62885E-1	+2.73252E-2
+1.32858E+1	+1.70395E-1	+1.61893E-1	+3.00417E-2
+1.33005E+1	+1.84265E-1	+1.70056E-1	+3.26220E-2
+1.33153E+1	+1.98192E-1	+1.75244E-1	+3.51894E-2
+1.33300E+1	+2.11986E-1	+1.64716E-1	+3.75557E-2
+1.33448E+1	+2.25831E-1	+1.49304E-1	+3.98843E-2
+1.33595E+1	+2.39538E-1	+1.37403E-1	+4.20743E-2
+1.33743E+1	+2.53289E-1	+1.18787E-1	+4.41753E-2
+1.33890E+1	+2.66898E-1	+1.18329E-1	+4.61776E-2
+1.34038E+1	+2.80545E-1	+1.30384E-1	+4.81227E-2
+1.34185E+1	+2.94044E-1	+1.50983E-1	+5.00527E-2
+1.34332E+1	+3.07485E-1	+1.52433E-1	+5.18812E-2
+1.34480E+1	+3.20955E-1	+1.19855E-1	+5.36681E-2
+1.34627E+1	+3.34271E-1	+9.04055E-2	+5.52878E-2
+1.34775E+1	+3.47610E-1	+7.43075E-2	+5.68468E-2
+1.34922E+1	+3.60789E-1	+8.91848E-2	+5.83147E-2
+1.35070E+1	+3.73986E-1	+1.03376E-1	+5.97772E-2
+1.35217E+1	+3.87019E-1	+1.06580E-1	+6.11886E-2
+1.35365E+1	+4.00064E-1	+9.26944E-2	+6.25060E-2
+1.35512E+1	+4.12940E-1	+8.98715E-2	+6.37571E-2
+1.35660E+1	+4.25821E-1	+8.49124E-2	+6.49527E-2
+1.35807E+1	+4.38530E-1	+7.31631E-2	+6.61011E-2
+1.35954E+1	+4.51152E-1	+7.70541E-2	+6.71772E-2
+1.36102E+1	+4.63770E-1	+6.33212E-2	+6.82166E-2
+1.36249E+1	+4.76209E-1	+6.96536E-2	+6.91967E-2
+1.36397E+1	+4.88638E-1	+5.48526E-2	+7.01539E-2
+1.36544E+1	+5.00885E-1	+6.18716E-2	+7.10208E-2
+1.36692E+1	+5.13116E-1	+5.23349E-2	+7.18719E-2
+1.36839E+1	+5.25161E-1	+5.36319E-2	+7.26817E-2
+1.36987E+1	+5.37183E-1	+5.18771E-2	+7.34595E-2
+1.37134E+1	+5.49016E-1	+3.88308E-2	+7.41903E-2
+1.37282E+1	+5.60820E-1	+4.17300E-2	+7.48913E-2
+1.37429E+1	+5.72433E-1	+3.28799E-2	+7.55685E-2
+1.37576E+1	+5.83931E-1	+3.44821E-2	+7.62154E-2
+1.37724E+1	+5.95391E-1	+3.77627E-2	+7.68122E-2
+1.37871E+1	+6.06655E-1	+5.03512E-2	+7.73773E-2
+1.38019E+1	+6.17873E-1	+5.34793E-2	+7.79075E-2
+1.38166E+1	+6.28893E-1	+4.38662E-2	+7.84115E-2
+1.38314E+1	+6.39862E-1	+1.82315E-2	+7.89122E-2
+1.38461E+1	+6.50628E-1	+8.77102E-3	+7.94111E-2
+1.38609E+1	+6.61338E-1	+2.59372E-2	+7.99013E-2
+1.38756E+1	+6.71843E-1	+4.87490E-2	+8.03090E-2
+1.38904E+1	+6.82285E-1	+3.52450E-2	+8.06983E-2
+1.39051E+1	+6.92520E-1	+2.00625E-2	+8.10980E-2
+1.39198E+1	+7.02618E-1	+2.72342E-2	+8.14817E-2
+1.39346E+1	+7.12644E-1	+2.29617E-2	+8.18212E-2
+1.39493E+1	+7.22460E-1	+1.67056E-2	+8.21835E-2
+1.39641E+1	+7.32197E-1	+2.78445E-2	+8.25077E-2
+1.39788E+1	+7.41723E-1	+2.15121E-2	+8.28110E-2
+1.39936E+1	+7.51165E-1	+2.25802E-2	+8.31187E-2
+1.40083E+1	+7.60394E-1	+1.53323E-2	+8.34008E-2
+1.40231E+1	+7.69532E-1	+2.05203E-2	+8.36878E-2
+1.40378E+1	+7.78456E-1	+1.93759E-2	+8.39456E-2
+1.40526E+1	+7.87284E-1	+1.64767E-2	+8.41997E-2
+1.40673E+1	+7.95895E-1	+1.33487E-2	+8.44292E-2
+1.40820E+1	+8.04348E-1	+1.38064E-2	+8.46487E-2
+1.40968E+1	+8.12698E-1	+1.16702E-2	+8.48700E-2
+1.41115E+1	+8.20829E-1	+1.59426E-2	+8.50775E-2
+1.41263E+1	+8.28850E-1	+1.61715E-2	+8.52759E-2
+1.41410E+1	+8.36653E-1	+1.12124E-2	+8.54738E-2
+1.41558E+1	+8.44340E-1	+7.85549E-3	+8.56498E-2
+1.41705E+1	+8.51808E-1	+6.48220E-3	+8.58268E-2
+1.41853E+1	+8.59155E-1	+1.26620E-2	+8.59935E-2
+1.42000E+1	+8.66281E-1	+1.31961E-2	+8.61648E-2
+1.42148E+1	+8.73282E-1	+4.95632E-3	+8.63125E-2
+1.42295E+1	+8.80061E-1	+9.61025E-3	+8.64626E-2
+1.42442E+1	+8.86666E-1	+1.40353E-2	+8.66005E-2
+1.42590E+1	+8.93138E-1	+4.88003E-3	+8.67310E-2
+1.42737E+1	+8.99388E-1	+8.84731E-3	+8.68559E-2
+1.42885E+1	+9.05500E-1	+8.16067E-3	+8.69795E-2
+1.43032E+1	+9.11391E-1	+6.48220E-3	+8.70943E-2
+1.43180E+1	+9.17138E-1	+2.66750E-3	+8.72088E-2
+1.43327E+1	+9.22664E-1	+1.00680E-2	+8.73121E-2
+1.43475E+1	+9.28043E-1	+1.01443E-2	+8.74167E-2
+1.43622E+1	+9.33200E-1	+7.55032E-3	+8.75061E-2
+1.43770E+1	+9.38205E-1	+8.38955E-3	+8.75970E-2
+1.43917E+1	+9.42989E-1	+1.21792E-3	+8.76794E-2
+1.44065E+1	+9.47616E-1	+6.93996E-3	+8.77605E-2
+1.44212E+1	+9.52024E-1	+7.24514E-3	+8.78429E-2
+1.44359E+1	+9.56242E-1	+7.62661E-3	+8.79130E-2
+1.44507E+1	+9.60297E-1	+7.85549E-3	+8.79721E-2
+1.44654E+1	+9.64133E-1	+5.31273E-4	+8.80403E-2
+1.44802E+1	+9.67802E-1	+9.89036E-4	+8.80957E-2
+1.44949E+1	+9.71253E-1	+7.39773E-3	+8.81562E-2
+1.45097E+1	+9.74533E-1	+2.26097E-4	+8.82080E-2
+1.45244E+1	+9.77597E-1	-6.13137E-4	+8.82575E-2
+1.45392E+1	+9.80485E-1	+5.79555E-3	+8.82991E-2
+1.45539E+1	+9.83158E-1	+7.09255E-3	+8.83263E-2
+1.45687E+1	+9.85652E-1	+7.16885E-3	+8.83786E-2
+1.45834E+1	+9.87933E-1	-2.52049E-3	+8.84106E-2
+1.45981E+1	+9.90018E-1	+7.24514E-3	+8.84258E-2
+1.46129E+1	+9.91918E-1	-9.94606E-4	+8.84410E-2
+1.46276E+1	+9.93608E-1	+5.31273E-4	+8.84600E-2
+1.46424E+1	+9.95109E-1	+9.89036E-4	+8.84777E-2
+1.46571E+1	+9.96403E-1	-1.45237E-3	+8.84946E-2
+1.46719E+1	+9.97505E-1	+2.89638E-3	+8.85067E-2
+1.46866E+1	+9.98401E-1	+1.02969E-2	+8.85141E-2
+1.47014E+1	+9.99102E-1	+3.73562E-3	+8.85094E-2
+1.47161E+1	+9.99600E-1	-1.29978E-3	+8.85073E-2
+1.47309E+1	+9.99901E-1	-3.05454E-3	+8.85104E-2
