+3.00000E+6	+3.01023E+6	+1.66857E-1
+3.20000E+6	+3.20924E+6	+1.64322E-1
+3.40000E+6	+3.40136E+6	+1.65341E-1
+3.60000E+6	+3.59195E+6	+1.69331E-1
+3.80000E+6	+3.80518E+6	+1.70076E-1
+4.00000E+6	+4.05844E+6	+1.67009E-1
+4.20000E+6	+4.20875E+6	+1.64141E-1
+4.40000E+6	+4.33276E+6	+1.64353E-1
+4.60000E+6	+4.58716E+6	+1.66584E-1
+4.80000E+6	+4.81696E+6	+1.66213E-1
+5.00000E+6	+5.04541E+6	+1.63132E-1
+5.20000E+6	+5.27426E+6	+1.60304E-1
+5.40000E+6	+5.29661E+6	+1.59321E-1
+5.60000E+6	+5.54939E+6	+1.60026E-1
+5.80000E+6	+5.70776E+6	+1.59594E-1
+6.00000E+6	+5.99520E+6	+1.56137E-1
+6.20000E+6	+6.25000E+6	+1.52889E-1
+6.40000E+6	+6.32911E+6	+1.51180E-1
+6.60000E+6	+6.64011E+6	+1.51149E-1
+6.80000E+6	+6.81199E+6	+1.49515E-1
+7.00000E+6	+7.02247E+6	+1.46113E-1
+7.20000E+6	+7.18391E+6	+1.42501E-1
+7.40000E+6	+7.35294E+6	+1.41507E-1
+7.60000E+6	+7.73994E+6	+1.40441E-1
+7.80000E+6	+7.86164E+6	+1.38081E-1
+8.00000E+6	+7.97448E+6	+1.36021E-1
+8.20000E+6	+8.16994E+6	+1.33415E-1
+8.40000E+6	+8.30565E+6	+1.31895E-1
+8.60000E+6	+8.62069E+6	+1.30763E-1
+8.80000E+6	+8.83392E+6	+1.29519E-1
+9.00000E+6	+9.19118E+6	+1.27680E-1
+9.20000E+6	+9.19118E+6	+1.25929E-1
+9.40000E+6	+9.39850E+6	+1.24934E-1
+9.60000E+6	+9.56023E+6	+1.24829E-1
+9.80000E+6	+9.86193E+6	+1.24209E-1
+1.00000E+7	+9.96016E+6	+1.23652E-1
+1.02000E+7	+1.03093E+7	+1.22736E-1
+1.04000E+7	+1.03093E+7	+1.23788E-1
+1.06000E+7	+1.06383E+7	+1.23947E-1
+1.08000E+7	+1.07296E+7	+1.25281E-1
+1.10000E+7	+1.11359E+7	+1.25233E-1
+1.12000E+7	+1.12360E+7	+1.25794E-1
+1.14000E+7	+1.13723E+7	+1.28122E-1
+1.16000E+7	+1.13809E+7	+1.29728E-1
+1.18000E+7	+1.18859E+7	+1.32067E-1
+1.20000E+7	+1.20192E+7	+1.34164E-1
+1.22000E+7	+1.21951E+7	+1.35663E-1
+1.24000E+7	+1.24481E+7	+1.38543E-1
+1.26000E+7	+1.26263E+7	+1.42433E-1
+1.28000E+7	+1.28096E+7	+1.45620E-1
+1.30000E+7	+1.32275E+7	+1.48478E-1
+1.32000E+7	+1.34288E+7	+1.51023E-1
+1.34000E+7	+1.33097E+7	+1.55492E-1
+1.36000E+7	+1.36364E+7	+1.60954E-1
+1.38000E+7	+1.36861E+7	+1.65506E-1
+1.40000E+7	+1.40056E+7	+1.69017E-1
+1.42000E+7	+1.41509E+7	+1.72451E-1
+1.44000E+7	+1.43266E+7	+1.77338E-1
+1.46000E+7	+1.46341E+7	+1.82877E-1
+1.48000E+7	+1.48221E+7	+1.87392E-1
+1.50000E+7	+1.50000E+7	+1.91309E-1
+1.52000E+7	+1.51668E+7	+1.95316E-1
+1.54000E+7	+1.53139E+7	+1.98719E-1
+1.56000E+7	+1.55280E+7	+2.03493E-1
+1.58000E+7	+1.56822E+7	+2.07585E-1
+1.60000E+7	+1.59541E+7	+2.10600E-1
+1.62000E+7	+1.62866E+7	+2.12172E-1
+1.64000E+7	+1.63399E+7	+2.14809E-1
+1.66000E+7	+1.65929E+7	+2.17180E-1
+1.68000E+7	+1.66759E+7	+2.19085E-1
+1.70000E+7	+1.68539E+7	+2.19497E-1
+1.72000E+7	+1.72513E+7	+2.18522E-1
+1.74000E+7	+1.73110E+7	+2.17820E-1
+1.76000E+7	+1.76574E+7	+2.16807E-1
+1.78000E+7	+1.76887E+7	+2.15137E-1
+1.80000E+7	+1.78891E+7	+2.11637E-1
+1.82000E+7	+1.82149E+7	+2.08620E-1
+1.84000E+7	+1.83150E+7	+2.04925E-1
+1.86000E+7	+1.88206E+7	+2.01845E-1
+1.88000E+7	+1.86335E+7	+1.97596E-1
+1.90000E+7	+1.87970E+7	+1.92551E-1
+1.92000E+7	+1.92308E+7	+1.87175E-1
+1.94000E+7	+1.91816E+7	+1.82182E-1
+1.96000E+7	+1.94175E+7	+1.77912E-1
+1.98000E+7	+1.98939E+7	+1.72512E-1
+2.00000E+7	+1.99734E+7	+1.66973E-1
