+3.00000E+6	+2.92056E+6	+1.77675E-1
+3.20000E+6	+3.19898E+6	+1.66325E-1
+3.40000E+6	+3.37382E+6	+1.59841E-1
+3.60000E+6	+3.59195E+6	+1.54419E-1
+3.80000E+6	+3.84025E+6	+1.48231E-1
+4.00000E+6	+4.05186E+6	+1.38599E-1
+4.20000E+6	+4.25894E+6	+1.30520E-1
+4.40000E+6	+4.43262E+6	+1.24742E-1
+4.60000E+6	+4.54959E+6	+1.20547E-1
+4.80000E+6	+4.80077E+6	+1.13689E-1
+5.00000E+6	+5.06757E+6	+1.07136E-1
+5.20000E+6	+5.29661E+6	+1.01570E-1
+5.40000E+6	+5.30410E+6	+9.73644E-2
+5.60000E+6	+5.49451E+6	+9.48041E-2
+5.80000E+6	+5.73395E+6	+9.21726E-2
+6.00000E+6	+6.01685E+6	+8.74258E-2
+6.20000E+6	+6.11247E+6	+8.46455E-2
+6.40000E+6	+6.36132E+6	+8.26906E-2
+6.60000E+6	+6.60793E+6	+8.18597E-2
+6.80000E+6	+6.78733E+6	+8.06681E-2
+7.00000E+6	+7.13267E+6	+7.95725E-2
+7.20000E+6	+6.96379E+6	+7.87834E-2
+7.40000E+6	+7.63942E+6	+7.98724E-2
+7.60000E+6	+7.44602E+6	+8.13588E-2
+7.80000E+6	+7.72798E+6	+8.24194E-2
+8.00000E+6	+8.03859E+6	+8.43242E-2
+8.20000E+6	+8.11688E+6	+8.59988E-2
+8.40000E+6	+8.44595E+6	+8.89723E-2
+8.60000E+6	+8.69061E+6	+9.31582E-2
+8.80000E+6	+8.63558E+6	+9.73134E-2
+9.00000E+6	+9.37032E+6	+1.00595E-1
+9.20000E+6	+9.21659E+6	+1.04823E-1
+9.40000E+6	+9.45776E+6	+1.09597E-1
+9.60000E+6	+9.70246E+6	+1.16193E-1
+9.80000E+6	+9.91408E+6	+1.21813E-1
+1.00000E+7	+9.84252E+6	+1.29330E-1
+1.02000E+7	+1.04167E+7	+1.35338E-1
+1.04000E+7	+1.03093E+7	+1.42003E-1
+1.06000E+7	+1.06838E+7	+1.50431E-1
+1.08000E+7	+1.09170E+7	+1.57694E-1
+1.10000E+7	+1.08853E+7	+1.65049E-1
+1.12000E+7	+1.12867E+7	+1.72915E-1
+1.14000E+7	+1.13895E+7	+1.81662E-1
+1.16000E+7	+1.16009E+7	+1.91521E-1
+1.18000E+7	+1.18577E+7	+2.01440E-1
+1.20000E+7	+1.18765E+7	+2.09299E-1
+1.22000E+7	+1.22349E+7	+2.17564E-1
+1.24000E+7	+1.24533E+7	+2.27607E-1
+1.26000E+7	+1.27119E+7	+2.38508E-1
+1.28000E+7	+1.28700E+7	+2.48420E-1
+1.30000E+7	+1.30548E+7	+2.56016E-1
+1.32000E+7	+1.32275E+7	+2.63776E-1
+1.34000E+7	+1.33690E+7	+2.71436E-1
+1.36000E+7	+1.36612E+7	+2.79072E-1
+1.38000E+7	+1.37363E+7	+2.84699E-1
+1.40000E+7	+1.40056E+7	+2.86659E-1
+1.42000E+7	+1.42450E+7	+2.87302E-1
+1.44000E+7	+1.42450E+7	+2.87659E-1
+1.46000E+7	+1.47348E+7	+2.87886E-1
+1.48000E+7	+1.47929E+7	+2.85744E-1
+1.50000E+7	+1.50602E+7	+2.79840E-1
+1.52000E+7	+1.51976E+7	+2.73338E-1
+1.54000E+7	+1.53846E+7	+2.66654E-1
+1.56000E+7	+1.56740E+7	+2.59477E-1
+1.58000E+7	+1.58730E+7	+2.52079E-1
+1.60000E+7	+1.61812E+7	+2.42067E-1
+1.62000E+7	+1.63043E+7	+2.31308E-1
+1.64000E+7	+1.61342E+7	+2.23068E-1
+1.66000E+7	+1.65563E+7	+2.14793E-1
+1.68000E+7	+1.67411E+7	+2.05920E-1
+1.70000E+7	+1.70455E+7	+1.96492E-1
+1.72000E+7	+1.70455E+7	+1.87352E-1
+1.74000E+7	+1.73611E+7	+1.78826E-1
+1.76000E+7	+1.76991E+7	+1.72042E-1
+1.78000E+7	+1.76991E+7	+1.64121E-1
+1.80000E+7	+1.80505E+7	+1.56036E-1
+1.82000E+7	+1.82927E+7	+1.48910E-1
+1.84000E+7	+1.83486E+7	+1.42444E-1
+1.86000E+7	+1.83374E+7	+1.36212E-1
+1.88000E+7	+1.84275E+7	+1.29946E-1
+1.90000E+7	+1.95313E+7	+1.24442E-1
+1.92000E+7	+1.91205E+7	+1.18481E-1
+1.94000E+7	+1.92802E+7	+1.13486E-1
+1.96000E+7	+2.00000E+7	+1.07357E-1
+1.98000E+7	+1.99681E+7	+1.03532E-1
+2.00000E+7	+1.99681E+7	+9.91199E-2
