\BOOKMARK [1][-]{section.1}{\376\377\000U\000v\000o\000d}{}% 1
\BOOKMARK [1][-]{section.2}{\376\377\000N\000a\000l\000o\000g\000a}{}% 2
\BOOKMARK [1][-]{section.3}{\376\377\000M\000e\000r\000i\000t\000v\000e\000\040\000i\000n\000\040\000r\000a\001\015\000u\000n}{}% 3
\BOOKMARK [2][-]{subsection.3.1}{\376\377\000D\000e\000l\000i\000l\000n\000o\000\040\000r\000a\000z\000m\000e\000r\000j\000e}{section.3}% 4
\BOOKMARK [2][-]{subsection.3.2}{\376\377\000O\000d\000v\000i\000s\000n\000o\000s\000t\000\040\000l\000o\000m\000n\000e\000g\000a\000\040\000k\000o\000l\000i\001\015\000n\000i\000k\000a\000\040\000o\000d\000\040\000t\000l\000a\000k\000a}{section.3}% 5
\BOOKMARK [2][-]{subsection.3.3}{\376\377\000E\000k\000v\000i\000d\000i\000s\000t\000a\000n\001\015\000n\000a\000\040\000l\000e\000g\000a\000\040\000i\000n\000\040\000k\000o\000h\000e\000r\000e\000n\001\015\000n\000a\000\040\000d\000o\000l\001\176\000i\000n\000a}{section.3}% 6
\BOOKMARK [2][-]{subsection.3.4}{\376\377\000N\000a\000t\000r\000i\000j\000e\000v\000\040\000d\000u\000b\000l\000e\000t}{section.3}% 7
